{
	"dancers": [{
      "id": 186,
      "registration_id": 29,
      "registrations_routine_id": 51,
      "dancer_id": 125,
      "workshop_skip": null,
      "date_routines_dancer_id": 32,
      "dancer": {
        "id": 125,
        "person_id": 386,
        "studio_name" : "Adrenaline Dance Company",
        "scholarship_code" : "26",
        "parent_guardian": null,
        "email_parents": null,
        "waiver": null,
        "age": 11,
        "person": {
          "id": 386,
          "address_id": null,
          "gender_id": 2,
          "person_type_id": 8,
          "fname": "Isabella",
          "lname": "Cespedes"
        }
      }
    },
    {
      "id": 186,
      "registration_id": 29,
      "registrations_routine_id": 51,
      "dancer_id": 125,
      "workshop_skip": null,
      "date_routines_dancer_id": 32,
      "dancer": {
        "id": 125,
        "person_id": 386,
        "studio_name" : "Adrenaline Dance Company",
        "scholarship_code" : "263",
        "parent_guardian": null,
        "email_parents": null,
        "waiver": null,
        "age": 9,
        "person": {
          "id": 386,
          "address_id": null,
          "gender_id": 2,
          "person_type_id": 8,
          "fname": "Isabella",
          "lname": "Cespedes"
        }
      }
    },
        {
      "id": 186,
      "registration_id": 29,
      "registrations_routine_id": 51,
      "dancer_id": 125,
      "workshop_skip": null,
      "date_routines_dancer_id": 32,
      "dancer": {
        "id": 125,
        "person_id": 386,
        "studio_name" : "Adrenaline Dance Company",
        "scholarship_code" : "384",
        "parent_guardian": null,
        "email_parents": null,
        "waiver": null,
        "age": 16,
        "person": {
          "id": 386,
          "address_id": null,
          "gender_id": 2,
          "person_type_id": 8,
          "fname": "Isabella",
          "lname": "Cespedes"
        }
      }
    },
    {
      "id": 186,
      "registration_id": 29,
      "registrations_routine_id": 51,
      "dancer_id": 125,
      "workshop_skip": null,
      "date_routines_dancer_id": 32,
      "dancer": {
        "id": 125,
        "person_id": 386,
        "studio_name" : "Adrenaline Dance Company",
        "scholarship_code" : "63",
        "parent_guardian": null,
        "email_parents": null,
        "waiver": null,
        "age": 14,
        "person": {
          "id": 386,
          "address_id": null,
          "gender_id": 2,
          "person_type_id": 8,
          "fname": "Isabella",
          "lname": "Cespedes"
        }
      }
    },
    {
      "id": 186,
      "registration_id": 29,
      "registrations_routine_id": 51,
      "dancer_id": 125,
      "workshop_skip": null,
      "date_routines_dancer_id": 32,
      "dancer": {
        "id": 125,
        "person_id": 386,
        "studio_name" : "Adrenaline Dance Company",
        "scholarship_code" : "333",
        "parent_guardian": null,
        "email_parents": null,
        "waiver": null,
        "age": 8,
        "person": {
          "id": 386,
          "address_id": null,
          "gender_id": 2,
          "person_type_id": 8,
          "fname": "Isabella",
          "lname": "Cespedes"
        }
      }
    },
    {
      "id": 186,
      "registration_id": 29,
      "registrations_routine_id": 51,
      "dancer_id": 125,
      "workshop_skip": null,
      "date_routines_dancer_id": 32,
      "dancer": {
        "id": 125,
        "person_id": 386,
        "studio_name" : "Adrenaline Dance Company",
        "scholarship_code" : "444",
        "parent_guardian": null,
        "email_parents": null,
        "waiver": null,
        "age": 12,
        "person": {
          "id": 386,
          "address_id": null,
          "gender_id": 2,
          "person_type_id": 8,
          "fname": "Isabella",
          "lname": "Cespedes"
        }
      }
    }
    ]
}