{
    "dancers": [
        {
            "fname": "Gianna",
            "lname": "Leon"
        },
        {
            "fname": "Joanne",
            "lname": "A.Tenorio-Ibanez"
        },
        {
            "fname": "Danna",
            "lname": "Abad"
        },
        {
            "fname": "Ava",
            "lname": "Abascal"
        },
        {
            "fname": "Kiki",
            "lname": "Abeiga"
        },
        {
            "fname": "Alyssa",
            "lname": "Aboy"
        },
        {
            "fname": "Gabi",
            "lname": "Abramowitz"
        },
        {
            "fname": "Kassandra",
            "lname": "Abreu"
        },
        {
            "fname": "Kassandra",
            "lname": "Abreu"
        },
        {
            "fname": "Samantha",
            "lname": "Abud"
        },
        {
            "fname": "Briana",
            "lname": "Ackerman"
        },
        {
            "fname": "Sophia",
            "lname": "Acosta"
        },
        {
            "fname": "Julianna",
            "lname": "Acosta"
        },
        {
            "fname": "Jessleen",
            "lname": "Acosta"
        },
        {
            "fname": "Bianca",
            "lname": "Adames"
        },
        {
            "fname": "Ian",
            "lname": "Agbannaoag"
        },
        {
            "fname": "Adriana",
            "lname": "Aguerri"
        },
        {
            "fname": "Sarah",
            "lname": "Aguiar"
        },
        {
            "fname": "Daniela",
            "lname": "Aguilar"
        },
        {
            "fname": "Maria",
            "lname": "Aguilar"
        },
        {
            "fname": "Eva",
            "lname": "Aguirre"
        },
        {
            "fname": "Layal",
            "lname": "Al-Jamal"
        },
        {
            "fname": "Samia",
            "lname": "Alarcon"
        },
        {
            "fname": "Kenyari",
            "lname": "Alexander"
        },
        {
            "fname": "Zachary",
            "lname": "Allen"
        },
        {
            "fname": "Sabrina",
            "lname": "Almeida"
        },
        {
            "fname": "Annalia",
            "lname": "Almonacid"
        },
        {
            "fname": "Kathryn",
            "lname": "Almond"
        },
        {
            "fname": "Megan",
            "lname": "Almond"
        },
        {
            "fname": "JoJo",
            "lname": "Almonte"
        },
        {
            "fname": "Sophia",
            "lname": "Alonso"
        },
        {
            "fname": "Carolina",
            "lname": "Alonso"
        },
        {
            "fname": "Mia",
            "lname": "Alonso"
        },
        {
            "fname": "Angelica",
            "lname": "Alvarez"
        },
        {
            "fname": "Amanda",
            "lname": "Alvarez"
        },
        {
            "fname": "Elizabeth",
            "lname": "Alvarez"
        },
        {
            "fname": "Layla",
            "lname": "Alvarez"
        },
        {
            "fname": "Mateo",
            "lname": "Alvarez"
        },
        {
            "fname": "Isabella",
            "lname": "Alvarez"
        },
        {
            "fname": "Noah",
            "lname": "Alvarez"
        },
        {
            "fname": "Xander",
            "lname": "Alvarez"
        },
        {
            "fname": "Mary",
            "lname": "Alvarez"
        },
        {
            "fname": "Carolina",
            "lname": "Alvarez"
        },
        {
            "fname": "Angelica",
            "lname": "Alzate"
        },
        {
            "fname": "Alyssa",
            "lname": "Amador"
        },
        {
            "fname": "Ana",
            "lname": "Amodio"
        },
        {
            "fname": "Sofia",
            "lname": "Amoroso"
        },
        {
            "fname": "Marianna",
            "lname": "Amortegui"
        },
        {
            "fname": "Isabel",
            "lname": "Andjell"
        },
        {
            "fname": "Aryanna",
            "lname": "Andujar"
        },
        {
            "fname": "Alexa",
            "lname": "Angelone"
        },
        {
            "fname": "Valentina",
            "lname": "Angulo"
        },
        {
            "fname": "Isabella",
            "lname": "Apolo"
        },
        {
            "fname": "Amanda",
            "lname": "Arango"
        },
        {
            "fname": "Eden",
            "lname": "Araten"
        },
        {
            "fname": "Sara",
            "lname": "Arauz"
        },
        {
            "fname": "Freddy",
            "lname": "Arauz"
        },
        {
            "fname": "Nina",
            "lname": "Arellano"
        },
        {
            "fname": "Francesca",
            "lname": "Arenas"
        },
        {
            "fname": "Sophia",
            "lname": "Armas"
        },
        {
            "fname": "Kiara",
            "lname": "Armstrong"
        },
        {
            "fname": "Katelyn",
            "lname": "Arnosa"
        },
        {
            "fname": "Jazmine",
            "lname": "Arocha"
        },
        {
            "fname": "Veronica",
            "lname": "Arria"
        },
        {
            "fname": "Leiny",
            "lname": "Arteaga"
        },
        {
            "fname": "Tanya",
            "lname": "Augustine"
        },
        {
            "fname": "Julieta",
            "lname": "Aveiga"
        },
        {
            "fname": "Geovanna",
            "lname": "Aveiga"
        },
        {
            "fname": "Gaby",
            "lname": "Avila"
        },
        {
            "fname": "Maylene",
            "lname": "Avila"
        },
        {
            "fname": "Mia",
            "lname": "Aviles"
        },
        {
            "fname": "Arianna",
            "lname": "Aviles"
        },
        {
            "fname": "Alexa",
            "lname": "Aviles"
        },
        {
            "fname": "Zainab",
            "lname": "Awale"
        },
        {
            "fname": "Mariam",
            "lname": "Awale"
        },
        {
            "fname": "Rosa",
            "lname": "Azanza"
        },
        {
            "fname": "Mia",
            "lname": "Azeredo"
        },
        {
            "fname": "Alina",
            "lname": "Baajour"
        },
        {
            "fname": "Caroline",
            "lname": "Babin"
        },
        {
            "fname": "Karla",
            "lname": "Babio"
        },
        {
            "fname": "Celeste",
            "lname": "Balboni"
        },
        {
            "fname": "Cristina",
            "lname": "Bally"
        },
        {
            "fname": "Hannah",
            "lname": "Bangash"
        },
        {
            "fname": "Katia",
            "lname": "Bango"
        },
        {
            "fname": "Carly",
            "lname": "Banister"
        },
        {
            "fname": "Elizabeth",
            "lname": "Baptista"
        },
        {
            "fname": "Madison",
            "lname": "Barbeito"
        },
        {
            "fname": "Natalia",
            "lname": "Barbery"
        },
        {
            "fname": "Alicia",
            "lname": "Bargamento"
        },
        {
            "fname": "Alexis",
            "lname": "Barna"
        },
        {
            "fname": "Jasmine",
            "lname": "Barnes"
        },
        {
            "fname": "Jessica",
            "lname": "Barnes"
        },
        {
            "fname": "Paula",
            "lname": "Barreiro"
        },
        {
            "fname": "Lilly",
            "lname": "Barres"
        },
        {
            "fname": "Violette",
            "lname": "Barreto"
        },
        {
            "fname": "Ariana",
            "lname": "Barreto"
        },
        {
            "fname": "Jada",
            "lname": "Barrios"
        },
        {
            "fname": "Abigail",
            "lname": "Barrios"
        },
        {
            "fname": "Alison",
            "lname": "Bascuas"
        },
        {
            "fname": "Alyssa",
            "lname": "Bascuas"
        },
        {
            "fname": "Isabella",
            "lname": "Batista"
        },
        {
            "fname": "Miabella",
            "lname": "Beato"
        },
        {
            "fname": "Anna",
            "lname": "Beck"
        },
        {
            "fname": "Lauren",
            "lname": "Beck"
        },
        {
            "fname": "Megan",
            "lname": "Beddoe"
        },
        {
            "fname": "Carmen",
            "lname": "Beiner"
        },
        {
            "fname": "Nathaniel",
            "lname": "Belnavis-Wright"
        },
        {
            "fname": "Amy",
            "lname": "Benedetto"
        },
        {
            "fname": "Megan",
            "lname": "Bentley"
        },
        {
            "fname": "Erin",
            "lname": "Berish"
        },
        {
            "fname": "Sofia",
            "lname": "Berkshire"
        },
        {
            "fname": "Sophia",
            "lname": "Bermudez"
        },
        {
            "fname": "Justin",
            "lname": "Bermudez"
        },
        {
            "fname": "Leslie",
            "lname": "Bermudez"
        },
        {
            "fname": "Jasmine",
            "lname": "Bernazar"
        },
        {
            "fname": "Isabella",
            "lname": "Berry"
        },
        {
            "fname": "Bella",
            "lname": "Besece"
        },
        {
            "fname": "Alejandra",
            "lname": "Bess"
        },
        {
            "fname": "Amber",
            "lname": "Bethal"
        },
        {
            "fname": "Sarai",
            "lname": "Biamby"
        },
        {
            "fname": "Amanda",
            "lname": "Blanco"
        },
        {
            "fname": "Paola",
            "lname": "Blanco"
        },
        {
            "fname": "Sophia",
            "lname": "Blanco"
        },
        {
            "fname": "Chole",
            "lname": "Blum"
        },
        {
            "fname": "Dakota",
            "lname": "Blum"
        },
        {
            "fname": "Emily",
            "lname": "Bolanos"
        },
        {
            "fname": "Isabella",
            "lname": "Bolivar-Lopez"
        },
        {
            "fname": "Darryn",
            "lname": "Bone"
        },
        {
            "fname": "Dayveth",
            "lname": "Bonilla"
        },
        {
            "fname": "Mia",
            "lname": "Bono"
        },
        {
            "fname": "Brigitte",
            "lname": "Bontoux"
        },
        {
            "fname": "Madison",
            "lname": "Borges"
        },
        {
            "fname": "Andrea",
            "lname": "Borja"
        },
        {
            "fname": "Alaia",
            "lname": "Boston"
        },
        {
            "fname": "Madelynn",
            "lname": "Bourgoing"
        },
        {
            "fname": "Susan",
            "lname": "Bouza"
        },
        {
            "fname": "Isabella",
            "lname": "Bragagnolo"
        },
        {
            "fname": "Alexa",
            "lname": "Braxton"
        },
        {
            "fname": "Amanda",
            "lname": "Braxton"
        },
        {
            "fname": "Emily",
            "lname": "Breeding"
        },
        {
            "fname": "Angelina",
            "lname": "Brennan"
        },
        {
            "fname": "Madison",
            "lname": "Bresseau"
        },
        {
            "fname": "Taylor",
            "lname": "Briceno"
        },
        {
            "fname": "Lucia",
            "lname": "Bringas"
        },
        {
            "fname": "Mariana",
            "lname": "Briones"
        },
        {
            "fname": "Katie",
            "lname": "Broe"
        },
        {
            "fname": "Sarah",
            "lname": "Broe"
        },
        {
            "fname": "Camille",
            "lname": "Brown"
        },
        {
            "fname": "Anna",
            "lname": "Brown"
        },
        {
            "fname": "Emma",
            "lname": "Bruder"
        },
        {
            "fname": "Abigail",
            "lname": "Bruno"
        },
        {
            "fname": "Natilie",
            "lname": "Bruzzo"
        },
        {
            "fname": "Alegria",
            "lname": "Burbano"
        },
        {
            "fname": "Starr",
            "lname": "Burks"
        },
        {
            "fname": "Jordyn",
            "lname": "Bushman"
        },
        {
            "fname": "Nicholas",
            "lname": "Bustos"
        },
        {
            "fname": "Isabella",
            "lname": "Cabrera"
        },
        {
            "fname": "Cosette",
            "lname": "Cabrera"
        },
        {
            "fname": "Natalie",
            "lname": "Caceres"
        },
        {
            "fname": "Ashley",
            "lname": "Caceres"
        },
        {
            "fname": "Michael",
            "lname": "Cadena"
        },
        {
            "fname": "Gabriela",
            "lname": "Caldera"
        },
        {
            "fname": "Emily",
            "lname": "Calderon"
        },
        {
            "fname": "Ileana",
            "lname": "Callahan"
        },
        {
            "fname": "Melissa",
            "lname": "Callard"
        },
        {
            "fname": "Carolina",
            "lname": "Calle"
        },
        {
            "fname": "Isabela",
            "lname": "Callejas"
        },
        {
            "fname": "Krystal",
            "lname": "Calveiro"
        },
        {
            "fname": "Briana",
            "lname": "Calvet"
        },
        {
            "fname": "Kayla",
            "lname": "Camandona"
        },
        {
            "fname": "Kylie",
            "lname": "Camandona"
        },
        {
            "fname": "Leyla",
            "lname": "Camilo"
        },
        {
            "fname": "Courtney",
            "lname": "Campbell"
        },
        {
            "fname": "Valeria",
            "lname": "Canas"
        },
        {
            "fname": "Leilany",
            "lname": "Canate"
        },
        {
            "fname": "Cameron",
            "lname": "Capo"
        },
        {
            "fname": "Kaitlyn",
            "lname": "Capote"
        },
        {
            "fname": "Alexa",
            "lname": "Capote"
        },
        {
            "fname": "Sophia",
            "lname": "Capra"
        },
        {
            "fname": "Liliana",
            "lname": "Caputo"
        },
        {
            "fname": "Emily",
            "lname": "Caraballo"
        },
        {
            "fname": "Emily",
            "lname": "Carbocci"
        },
        {
            "fname": "Ginabella",
            "lname": "Cardinale"
        },
        {
            "fname": "Rush",
            "lname": "Carson"
        },
        {
            "fname": "Rachel",
            "lname": "Carter"
        },
        {
            "fname": "Valentina",
            "lname": "Carvallo"
        },
        {
            "fname": "Kylee",
            "lname": "Casares"
        },
        {
            "fname": "Roxette",
            "lname": "Castaneda"
        },
        {
            "fname": "Melanie",
            "lname": "Castellanos"
        },
        {
            "fname": "Kayla",
            "lname": "Castellanos"
        },
        {
            "fname": "Francesca",
            "lname": "Castellanos"
        },
        {
            "fname": "Ava",
            "lname": "Castillo"
        },
        {
            "fname": "David",
            "lname": "Castillo"
        },
        {
            "fname": "Eric",
            "lname": "Castillo"
        },
        {
            "fname": "Gabriela",
            "lname": "Castro"
        },
        {
            "fname": "D'Angelo",
            "lname": "Castro"
        },
        {
            "fname": "Ruby",
            "lname": "Castro"
        },
        {
            "fname": "Marie",
            "lname": "Castro"
        },
        {
            "fname": "Katelyn",
            "lname": "Caudle"
        },
        {
            "fname": "Romy",
            "lname": "Ceballo"
        },
        {
            "fname": "Shadia",
            "lname": "Celemin"
        },
        {
            "fname": "Isabella",
            "lname": "Cespedes"
        },
        {
            "fname": "Amanda",
            "lname": "Elgarresta"
        },
        {
            "fname": "Katalina",
            "lname": "Enriquez"
        },
        {
            "fname": "Sabrina",
            "lname": "Escobar"
        },
        {
            "fname": "Zara",
            "lname": "Escobar"
        },
        {
            "fname": "Lauren",
            "lname": "Espinel"
        },
        {
            "fname": "Carolina",
            "lname": "Espinosa"
        },
        {
            "fname": "Elena",
            "lname": "Espinoza"
        },
        {
            "fname": "Malena",
            "lname": "Espinoza"
        },
        {
            "fname": "Sophia",
            "lname": "Espinoza"
        },
        {
            "fname": "Madison",
            "lname": "Espinoza"
        },
        {
            "fname": "Lucia",
            "lname": "Esquivel"
        },
        {
            "fname": "Ana-Paulina",
            "lname": "Esteves"
        },
        {
            "fname": "Parissa",
            "lname": "Evans"
        },
        {
            "fname": "Mya",
            "lname": "Exelbert"
        },
        {
            "fname": "Andrea",
            "lname": "Fadel"
        },
        {
            "fname": "Giselle",
            "lname": "Falla"
        },
        {
            "fname": "Isabella",
            "lname": "Faraldo"
        },
        {
            "fname": "Brady",
            "lname": "Farrar"
        },
        {
            "fname": "Hannah",
            "lname": "Feder"
        },
        {
            "fname": "Camila",
            "lname": "Felix"
        },
        {
            "fname": "Gianna",
            "lname": "Felix"
        },
        {
            "fname": "Kelli",
            "lname": "Ferguson"
        },
        {
            "fname": "Mackenzie",
            "lname": "Ferguson"
        },
        {
            "fname": "Kyana",
            "lname": "Fernandez"
        },
        {
            "fname": "Angelina",
            "lname": "Fernandez"
        },
        {
            "fname": "Daniela",
            "lname": "Fernandez"
        },
        {
            "fname": "Ashley",
            "lname": "Fernandez"
        },
        {
            "fname": "Tiffany",
            "lname": "Fernandez"
        },
        {
            "fname": "Kaylee",
            "lname": "Fernandez"
        },
        {
            "fname": "Gabriella",
            "lname": "Fernandez"
        },
        {
            "fname": "Sophia",
            "lname": "Fernandez"
        },
        {
            "fname": "Allison",
            "lname": "Fernandez"
        },
        {
            "fname": "Courtney",
            "lname": "Fernandez"
        },
        {
            "fname": "Alyssa",
            "lname": "Fernandez"
        },
        {
            "fname": "Sofia",
            "lname": "Fernandez"
        },
        {
            "fname": "Lola",
            "lname": "Fernandez"
        },
        {
            "fname": "Daniela",
            "lname": "Ferrer"
        },
        {
            "fname": "Sarah",
            "lname": "Fetterman"
        },
        {
            "fname": "Mriela",
            "lname": "Figueroa"
        },
        {
            "fname": "Sofia",
            "lname": "Figueroa"
        },
        {
            "fname": "Zach",
            "lname": "Finkelstein"
        },
        {
            "fname": "Madison",
            "lname": "Flanagan"
        },
        {
            "fname": "Olivia",
            "lname": "Fleisher"
        },
        {
            "fname": "Viannei",
            "lname": "Flores"
        },
        {
            "fname": "Sabrina",
            "lname": "Fons"
        },
        {
            "fname": "Sabrina",
            "lname": "Fons"
        },
        {
            "fname": "Morgan",
            "lname": "Fontus"
        },
        {
            "fname": "Kiana",
            "lname": "Ford"
        },
        {
            "fname": "Savannah",
            "lname": "Foster"
        },
        {
            "fname": "Sofia",
            "lname": "Fraga"
        },
        {
            "fname": "Alessa",
            "lname": "Franco"
        },
        {
            "fname": "Lyric",
            "lname": "Franklin"
        },
        {
            "fname": "Fabiana",
            "lname": "Frazzetta"
        },
        {
            "fname": "Paulina",
            "lname": "Fresen"
        },
        {
            "fname": "Ava",
            "lname": "Fridella"
        },
        {
            "fname": "Victoria",
            "lname": "Fuentes"
        },
        {
            "fname": "Alec",
            "lname": "Fursman"
        },
        {
            "fname": "Alexandra",
            "lname": "Gagliano"
        },
        {
            "fname": "Alexandra",
            "lname": "Gale"
        },
        {
            "fname": "Nicole",
            "lname": "Galvizu"
        },
        {
            "fname": "Miranda",
            "lname": "Gamboa"
        },
        {
            "fname": "Giuliana",
            "lname": "Gamero"
        },
        {
            "fname": "Francesca",
            "lname": "Gamero"
        },
        {
            "fname": "Kohlt",
            "lname": "Gamsen"
        },
        {
            "fname": "Giselle",
            "lname": "Gandarilla"
        },
        {
            "fname": "Angelina",
            "lname": "Garces"
        },
        {
            "fname": "Ella",
            "lname": "Garcia"
        },
        {
            "fname": "Carolina",
            "lname": "Garcia"
        },
        {
            "fname": "Olivia",
            "lname": "Garcia"
        },
        {
            "fname": "Jianna",
            "lname": "Garcia"
        },
        {
            "fname": "Sophia",
            "lname": "Garcia"
        },
        {
            "fname": "Jiannah",
            "lname": "Garcia"
        },
        {
            "fname": "Micaela",
            "lname": "Garcia"
        },
        {
            "fname": "Stella",
            "lname": "Garcia"
        },
        {
            "fname": "Ashley",
            "lname": "Garcia"
        },
        {
            "fname": "Paola",
            "lname": "Garcia"
        },
        {
            "fname": "Bianca",
            "lname": "Garcia"
        },
        {
            "fname": "Alexandra",
            "lname": "Garcia"
        },
        {
            "fname": "Sienna",
            "lname": "Garcia"
        },
        {
            "fname": "Ella",
            "lname": "Garcia"
        },
        {
            "fname": "Carolina",
            "lname": "Oliver"
        },
        {
            "fname": "Kylie",
            "lname": "Garity"
        },
        {
            "fname": "Andrea",
            "lname": "Garrido"
        },
        {
            "fname": "Alex",
            "lname": "Garzon"
        },
        {
            "fname": "Cristina",
            "lname": "Garzon"
        },
        {
            "fname": "Diana",
            "lname": "Gauvin"
        },
        {
            "fname": "Nailah",
            "lname": "Gayle"
        },
        {
            "fname": "Emily",
            "lname": "Gayle"
        },
        {
            "fname": "Caroline",
            "lname": "Geffner"
        },
        {
            "fname": "Lily",
            "lname": "Gentile"
        },
        {
            "fname": "Sophia",
            "lname": "Geraldo"
        },
        {
            "fname": "Layla",
            "lname": "Gibb"
        },
        {
            "fname": "Andrea",
            "lname": "Gil"
        },
        {
            "fname": "Sophia",
            "lname": "Gil"
        },
        {
            "fname": "Megan",
            "lname": "Giordano"
        },
        {
            "fname": "Camille",
            "lname": "Giordano"
        },
        {
            "fname": "Mariana",
            "lname": "Giraldo"
        },
        {
            "fname": "Liana",
            "lname": "Goitia"
        },
        {
            "fname": "Erin",
            "lname": "Golburgh"
        },
        {
            "fname": "Brianna",
            "lname": "Goldberg"
        },
        {
            "fname": "Amy",
            "lname": "Gomez"
        },
        {
            "fname": "Gabriela",
            "lname": "Gomez"
        },
        {
            "fname": "Sophia",
            "lname": "Gomez"
        },
        {
            "fname": "Vanessa",
            "lname": "Gomez"
        },
        {
            "fname": "Jennifer",
            "lname": "Gomez"
        },
        {
            "fname": "Brianna",
            "lname": "Gomez"
        },
        {
            "fname": "Emma",
            "lname": "Gomez"
        },
        {
            "fname": "Sienna",
            "lname": "Gomez"
        },
        {
            "fname": "Juliet",
            "lname": "Gomez"
        },
        {
            "fname": "Danielle",
            "lname": "Gomez"
        },
        {
            "fname": "Angeline",
            "lname": "Gomez"
        },
        {
            "fname": "Lei-Asha",
            "lname": "Gonzales"
        },
        {
            "fname": "Brianna",
            "lname": "Gonzalez"
        },
        {
            "fname": "Brenan",
            "lname": "Gonzalez"
        },
        {
            "fname": "Amanda",
            "lname": "Gonzalez"
        },
        {
            "fname": "Lauren",
            "lname": "Gonzalez"
        },
        {
            "fname": "Gabriella",
            "lname": "Gonzalez"
        },
        {
            "fname": "Paulina",
            "lname": "Gonzalez-Brito"
        },
        {
            "fname": "Bailey",
            "lname": "Goodnight"
        },
        {
            "fname": "Ali",
            "lname": "Gordon"
        },
        {
            "fname": "Sara",
            "lname": "Gotkin"
        },
        {
            "fname": "Natalia",
            "lname": "Govea"
        },
        {
            "fname": "Angelina",
            "lname": "Granitz"
        },
        {
            "fname": "Olivia",
            "lname": "Graterol"
        },
        {
            "fname": "Sofia",
            "lname": "Graterol"
        },
        {
            "fname": "Daphne",
            "lname": "Grau"
        },
        {
            "fname": "Zoe",
            "lname": "Grau"
        },
        {
            "fname": "Olivia",
            "lname": "Gray"
        },
        {
            "fname": "Trinidad",
            "lname": "Grinspan"
        },
        {
            "fname": "Emma",
            "lname": "Groeneveld"
        },
        {
            "fname": "Zoey",
            "lname": "Guerra"
        },
        {
            "fname": "Leann",
            "lname": "Guerrero"
        },
        {
            "fname": "Samantha",
            "lname": "Guerrero"
        },
        {
            "fname": "Isabella",
            "lname": "Guerrero"
        },
        {
            "fname": "Hayden",
            "lname": "Guerrero"
        },
        {
            "fname": "Camilla",
            "lname": "Guillen"
        },
        {
            "fname": "Andrea",
            "lname": "Guillen"
        },
        {
            "fname": "Inara",
            "lname": "Gulla"
        },
        {
            "fname": "Angelina",
            "lname": "Guzman"
        },
        {
            "fname": "Amanda",
            "lname": "Hall"
        },
        {
            "fname": "Fiona",
            "lname": "Hanly"
        },
        {
            "fname": "Priscilla",
            "lname": "Hardie"
        },
        {
            "fname": "Alyssa",
            "lname": "Hartley"
        },
        {
            "fname": "Isabella",
            "lname": "Heredia"
        },
        {
            "fname": "Isabella",
            "lname": "Hernandez"
        },
        {
            "fname": "Natalie",
            "lname": "Hernandez"
        },
        {
            "fname": "Kassidy",
            "lname": "Hernandez"
        },
        {
            "fname": "Lizeth",
            "lname": "Hernandez"
        },
        {
            "fname": "Amelia",
            "lname": "Hernandez"
        },
        {
            "fname": "Melody",
            "lname": "Hernandez"
        },
        {
            "fname": "Isabella",
            "lname": "Hernandez"
        },
        {
            "fname": "Jayden",
            "lname": "Hernandez"
        },
        {
            "fname": "Carolina",
            "lname": "Hernandez"
        },
        {
            "fname": "Lyann",
            "lname": "Hernandez"
        },
        {
            "fname": "Dougal",
            "lname": "Herr"
        },
        {
            "fname": "Elliana",
            "lname": "Herr"
        },
        {
            "fname": "Astrid",
            "lname": "Herrera"
        },
        {
            "fname": "Lian",
            "lname": "Hes"
        },
        {
            "fname": "Alexa",
            "lname": "Hess"
        },
        {
            "fname": "Ava",
            "lname": "Hidalgo"
        },
        {
            "fname": "Gabrielle",
            "lname": "Hidalgo"
        },
        {
            "fname": "Kaitlyn",
            "lname": "Higens"
        },
        {
            "fname": "Dani",
            "lname": "Hilel"
        },
        {
            "fname": "Annia",
            "lname": "Hobson"
        },
        {
            "fname": "Zoe",
            "lname": "Holladay"
        },
        {
            "fname": "Brooke",
            "lname": "Holland"
        },
        {
            "fname": "Katie",
            "lname": "Hollander"
        },
        {
            "fname": "Kaliyah",
            "lname": "Holmes"
        },
        {
            "fname": "Janelle",
            "lname": "Hopkins"
        },
        {
            "fname": "Penelope",
            "lname": "Houston"
        },
        {
            "fname": "McKenzi",
            "lname": "Howey"
        },
        {
            "fname": "Reif",
            "lname": "Howey"
        },
        {
            "fname": "Sophia",
            "lname": "Hoyos"
        },
        {
            "fname": "Anabelle",
            "lname": "Huembes"
        },
        {
            "fname": "Kamila",
            "lname": "Huerres"
        },
        {
            "fname": "Isabella",
            "lname": "Hughes"
        },
        {
            "fname": "Celine",
            "lname": "Hurtado"
        },
        {
            "fname": "Olivia",
            "lname": "Iglesias"
        },
        {
            "fname": "Jaziyah",
            "lname": "Jackson"
        },
        {
            "fname": "Nadia",
            "lname": "Jaramillo"
        },
        {
            "fname": "Ariana",
            "lname": "Jaramillo"
        },
        {
            "fname": "Daniela",
            "lname": "Jason"
        },
        {
            "fname": "Paris",
            "lname": "Jean"
        },
        {
            "fname": "Tatiana",
            "lname": "Jimenez"
        },
        {
            "fname": "Rachel",
            "lname": "Jimenez"
        },
        {
            "fname": "Lexi",
            "lname": "Jimenez"
        },
        {
            "fname": "Ali",
            "lname": "Jimenez"
        },
        {
            "fname": "Valerie",
            "lname": "Jimenez"
        },
        {
            "fname": "Jalyn",
            "lname": "Jimenez"
        },
        {
            "fname": "Chloe",
            "lname": "Jimenez"
        },
        {
            "fname": "Emilee",
            "lname": "Jones"
        },
        {
            "fname": "Charlotte",
            "lname": "Jones"
        },
        {
            "fname": "Samantha",
            "lname": "Judd"
        },
        {
            "fname": "Brooke",
            "lname": "Judge"
        },
        {
            "fname": "Emilie",
            "lname": "Kaiser"
        },
        {
            "fname": "Olivia",
            "lname": "Kaplan"
        },
        {
            "fname": "EB",
            "lname": "Keime"
        },
        {
            "fname": "Ahsha",
            "lname": "Kennedy"
        },
        {
            "fname": "Nicole",
            "lname": "Kent"
        },
        {
            "fname": "Nicole",
            "lname": "King"
        },
        {
            "fname": "Sophia",
            "lname": "King"
        },
        {
            "fname": "Laina",
            "lname": "Kirkeide"
        },
        {
            "fname": "Kylie",
            "lname": "Kishinevsky"
        },
        {
            "fname": "Jordyn",
            "lname": "Kloor"
        },
        {
            "fname": "Niko",
            "lname": "Koch"
        },
        {
            "fname": "Ellie",
            "lname": "Koch"
        },
        {
            "fname": "Adriana",
            "lname": "Korzak"
        },
        {
            "fname": "Victoria",
            "lname": "Krulig"
        },
        {
            "fname": "Kristine",
            "lname": "Kugler"
        },
        {
            "fname": "Bhavia",
            "lname": "Kumar"
        },
        {
            "fname": "Jillian",
            "lname": "Lafont"
        },
        {
            "fname": "Nicholas",
            "lname": "LaMaina"
        },
        {
            "fname": "Milana",
            "lname": "LaMaina"
        },
        {
            "fname": "Alejandra",
            "lname": "Landaeta"
        },
        {
            "fname": "Josh",
            "lname": "Landry"
        },
        {
            "fname": "Christopher",
            "lname": "Lange"
        },
        {
            "fname": "Lia",
            "lname": "Lanz"
        },
        {
            "fname": "Krizia",
            "lname": "Lanza"
        },
        {
            "fname": "Valentina",
            "lname": "Lanza"
        },
        {
            "fname": "Amelie",
            "lname": "LaRosa"
        },
        {
            "fname": "Ana",
            "lname": "Laszewski"
        },
        {
            "fname": "Anabella",
            "lname": "Laufer"
        },
        {
            "fname": "Noam",
            "lname": "Laufer"
        },
        {
            "fname": "Natalie",
            "lname": "Lavina"
        },
        {
            "fname": "Kylie",
            "lname": "Lavine"
        },
        {
            "fname": "Arianne",
            "lname": "Lazcano"
        },
        {
            "fname": "Giuliana",
            "lname": "Leal"
        },
        {
            "fname": "Rebecca",
            "lname": "Leeds"
        },
        {
            "fname": "Adrianna",
            "lname": "Leiva"
        },
        {
            "fname": "Synthia",
            "lname": "Lemus"
        },
        {
            "fname": "Sasha",
            "lname": "Lemus"
        },
        {
            "fname": "Savannah",
            "lname": "Leon"
        },
        {
            "fname": "Hannah",
            "lname": "Leon"
        },
        {
            "fname": "Katherine",
            "lname": "Leon"
        },
        {
            "fname": "Samantha",
            "lname": "Leon"
        },
        {
            "fname": "Sabrina",
            "lname": "Leon"
        },
        {
            "fname": "Skylar",
            "lname": "Lewis-Shirley"
        },
        {
            "fname": "Jordan",
            "lname": "Lida"
        },
        {
            "fname": "Brittney",
            "lname": "Lida"
        },
        {
            "fname": "Emma",
            "lname": "Lima"
        },
        {
            "fname": "Alexandra",
            "lname": "Linaje"
        },
        {
            "fname": "Emmy",
            "lname": "Linaje"
        },
        {
            "fname": "Antonella",
            "lname": "Liviero"
        },
        {
            "fname": "Jenny",
            "lname": "Lizazo"
        },
        {
            "fname": "Anabella",
            "lname": "Llanos"
        },
        {
            "fname": "Isabella",
            "lname": "Llerena"
        },
        {
            "fname": "Allison",
            "lname": "Llevat"
        },
        {
            "fname": "Madison",
            "lname": "Llizo"
        },
        {
            "fname": "Madelyn",
            "lname": "Llopis"
        },
        {
            "fname": "Mia",
            "lname": "Lopez"
        },
        {
            "fname": "Maddison",
            "lname": "Lopez"
        },
        {
            "fname": "Valentina",
            "lname": "Loro"
        },
        {
            "fname": "Skye",
            "lname": "Losey"
        },
        {
            "fname": "Kata",
            "lname": "Losey"
        },
        {
            "fname": "Victoria",
            "lname": "Losk"
        },
        {
            "fname": "Anna",
            "lname": "Luaces"
        },
        {
            "fname": "Lina",
            "lname": "Luaces"
        },
        {
            "fname": "Nia",
            "lname": "Lue"
        },
        {
            "fname": "Izabella",
            "lname": "Lugo"
        },
        {
            "fname": "Natalie",
            "lname": "Lugo"
        },
        {
            "fname": "Jenna",
            "lname": "Luna"
        },
        {
            "fname": "Lauren",
            "lname": "Luteran"
        },
        {
            "fname": "Chloe",
            "lname": "Lyon"
        },
        {
            "fname": "Leilany",
            "lname": "Machado"
        },
        {
            "fname": "Gabi",
            "lname": "Machado"
        },
        {
            "fname": "Chantal",
            "lname": "Maklad"
        },
        {
            "fname": "Luna",
            "lname": "Maldonado"
        },
        {
            "fname": "Jennifer",
            "lname": "Maldonado"
        },
        {
            "fname": "Gianna",
            "lname": "Mancini"
        },
        {
            "fname": "Talia",
            "lname": "Mandel"
        },
        {
            "fname": "Amari",
            "lname": "Mann"
        },
        {
            "fname": "Samantha",
            "lname": "Manrique"
        },
        {
            "fname": "Sophia",
            "lname": "Manzano"
        },
        {
            "fname": "Isabella",
            "lname": "Marinelli"
        },
        {
            "fname": "Alejandro",
            "lname": "Marquez"
        },
        {
            "fname": "Janey",
            "lname": "Marsh"
        },
        {
            "fname": "Alexa",
            "lname": "Martell"
        },
        {
            "fname": "Amanda",
            "lname": "Martell"
        },
        {
            "fname": "Alyssa",
            "lname": "Marten"
        },
        {
            "fname": "Sophia",
            "lname": "Martinez"
        },
        {
            "fname": "Sabrina",
            "lname": "Martinez"
        },
        {
            "fname": "Gabriella",
            "lname": "Martinez"
        },
        {
            "fname": "Melissa",
            "lname": "Martinez"
        },
        {
            "fname": "Alexa",
            "lname": "Martinez"
        },
        {
            "fname": "Marisa",
            "lname": "Martinez"
        },
        {
            "fname": "Vianna",
            "lname": "Martinez"
        },
        {
            "fname": "Nicole",
            "lname": "Martinez"
        },
        {
            "fname": "Rheem",
            "lname": "Masaood"
        },
        {
            "fname": "Cameron",
            "lname": "Massicotte"
        },
        {
            "fname": "Anayah",
            "lname": "Maycock"
        },
        {
            "fname": "Emma",
            "lname": "McCaffrey"
        },
        {
            "fname": "Arianna",
            "lname": "McCartney"
        },
        {
            "fname": "MaryAlice",
            "lname": "McKee"
        },
        {
            "fname": "Madison",
            "lname": "McLaughlin"
        },
        {
            "fname": "Leah",
            "lname": "McLeod"
        },
        {
            "fname": "Leah",
            "lname": "McLeod"
        },
        {
            "fname": "Rylie",
            "lname": "McNeel"
        },
        {
            "fname": "Gianna",
            "lname": "Medina"
        },
        {
            "fname": "Nicole",
            "lname": "Medina"
        },
        {
            "fname": "Bella",
            "lname": "Megally"
        },
        {
            "fname": "Kyelee",
            "lname": "Megally"
        },
        {
            "fname": "Khloe",
            "lname": "Megally"
        },
        {
            "fname": "Appolonia",
            "lname": "Meier"
        },
        {
            "fname": "Jenna",
            "lname": "Meilman"
        },
        {
            "fname": "Ashley",
            "lname": "Melero"
        },
        {
            "fname": "Brooke",
            "lname": "Melillo"
        },
        {
            "fname": "Jamaii",
            "lname": "Melvin"
        },
        {
            "fname": "Kyslian",
            "lname": "Mendez"
        },
        {
            "fname": "Paloma",
            "lname": "Mendoza"
        },
        {
            "fname": "Ashley",
            "lname": "Mendoza"
        },
        {
            "fname": "Mia",
            "lname": "Mendoza"
        },
        {
            "fname": "Sofia",
            "lname": "Mendoza"
        },
        {
            "fname": "Vanessa",
            "lname": "Metellus"
        },
        {
            "fname": "Laura",
            "lname": "Mewe"
        },
        {
            "fname": "Ellie",
            "lname": "Michaelson"
        },
        {
            "fname": "Evelyn",
            "lname": "Mike"
        },
        {
            "fname": "Jordan",
            "lname": "Mikus"
        },
        {
            "fname": "Claire",
            "lname": "Milan"
        },
        {
            "fname": "Valentina",
            "lname": "Millan"
        },
        {
            "fname": "Kimora",
            "lname": "Miller"
        },
        {
            "fname": "McKinnley",
            "lname": "Milner"
        },
        {
            "fname": "Jayla",
            "lname": "Milton"
        },
        {
            "fname": "Victoria",
            "lname": "Mineo"
        },
        {
            "fname": "Vittoria",
            "lname": "Minicozzi"
        },
        {
            "fname": "Gizcel",
            "lname": "Miranda"
        },
        {
            "fname": "Evangeline",
            "lname": "Mirranda"
        },
        {
            "fname": "Jadyn",
            "lname": "Mize"
        },
        {
            "fname": "Alejandro",
            "lname": "Mogollon"
        },
        {
            "fname": "Bridget",
            "lname": "Molina"
        },
        {
            "fname": "Elly",
            "lname": "Molina"
        },
        {
            "fname": "Kylee",
            "lname": "Molinary"
        },
        {
            "fname": "Abigail",
            "lname": "Molinos"
        },
        {
            "fname": "Tiffany",
            "lname": "Moliver"
        },
        {
            "fname": "Viveka",
            "lname": "Mon"
        },
        {
            "fname": "Alexa",
            "lname": "Mon"
        },
        {
            "fname": "Ophelie",
            "lname": "Monfroy"
        },
        {
            "fname": "Isamara",
            "lname": "Moni"
        },
        {
            "fname": "Maralina",
            "lname": "Moni"
        },
        {
            "fname": "Nicolle",
            "lname": "Monnott"
        },
        {
            "fname": "Reese",
            "lname": "Montanez"
        },
        {
            "fname": "Amanda",
            "lname": "Montero"
        },
        {
            "fname": "Emelie",
            "lname": "Monterrey"
        },
        {
            "fname": "Amanda",
            "lname": "Montes"
        },
        {
            "fname": "Brianna",
            "lname": "Monticello"
        },
        {
            "fname": "Makenzie",
            "lname": "Moorer"
        },
        {
            "fname": "Alexa",
            "lname": "Mora"
        },
        {
            "fname": "Jayda",
            "lname": "Morales"
        },
        {
            "fname": "Annelise",
            "lname": "Morales"
        },
        {
            "fname": "Shamus",
            "lname": "Moriarty"
        },
        {
            "fname": "Blake",
            "lname": "Morris"
        },
        {
            "fname": "Lauren",
            "lname": "Morris"
        },
        {
            "fname": "Brennan",
            "lname": "Morris"
        },
        {
            "fname": "Berkley",
            "lname": "Morris"
        },
        {
            "fname": "Lauren",
            "lname": "Morris"
        },
        {
            "fname": "Madison",
            "lname": "Morrison"
        },
        {
            "fname": "Mariana",
            "lname": "Moscoso"
        },
        {
            "fname": "Marie",
            "lname": "Moussignac"
        },
        {
            "fname": "Taylor",
            "lname": "Moxey"
        },
        {
            "fname": "Charlotte",
            "lname": "Mozingo"
        },
        {
            "fname": "Belinda",
            "lname": "Mozo"
        },
        {
            "fname": "Alanna",
            "lname": "Muldowney"
        },
        {
            "fname": "Bailey",
            "lname": "Mullis"
        },
        {
            "fname": "Sophia",
            "lname": "Muniz"
        },
        {
            "fname": "Amerika",
            "lname": "Munoz"
        },
        {
            "fname": "Gabriela",
            "lname": "Munoz"
        },
        {
            "fname": "Madelyn",
            "lname": "Munz"
        },
        {
            "fname": "Morgan",
            "lname": "Myers"
        },
        {
            "fname": "camila",
            "lname": "navarro"
        },
        {
            "fname": "Camila",
            "lname": "Navarro"
        },
        {
            "fname": "Zariah",
            "lname": "Neely"
        },
        {
            "fname": "Kimberly",
            "lname": "Ngo"
        },
        {
            "fname": "Sophia",
            "lname": "Nicolas"
        },
        {
            "fname": "Kylie",
            "lname": "Nijankin"
        },
        {
            "fname": "Antonia",
            "lname": "Nino"
        },
        {
            "fname": "Stephanie",
            "lname": "Nino"
        },
        {
            "fname": "Mia",
            "lname": "Nino-Parra"
        },
        {
            "fname": "Isabellah",
            "lname": "Nodarse"
        },
        {
            "fname": "Carolina",
            "lname": "Noriega"
        },
        {
            "fname": "Perez",
            "lname": "Ofelia"
        },
        {
            "fname": "Alexa",
            "lname": "Olivier"
        },
        {
            "fname": "Ava",
            "lname": "Orell"
        },
        {
            "fname": "Alexandria",
            "lname": "Orengo"
        },
        {
            "fname": "Annette",
            "lname": "Oritz"
        },
        {
            "fname": "Chyara",
            "lname": "Orsolini"
        },
        {
            "fname": "Maria",
            "lname": "Ortega"
        },
        {
            "fname": "Sophia",
            "lname": "Ortiz"
        },
        {
            "fname": "Ana-Carolina",
            "lname": "Ortiz"
        },
        {
            "fname": "Sylvia",
            "lname": "Ortiz"
        },
        {
            "fname": "Stephanie",
            "lname": "Ortiz"
        },
        {
            "fname": "Stephanie",
            "lname": "Ortiz"
        },
        {
            "fname": "Sophia",
            "lname": "Ortiz"
        },
        {
            "fname": "Daniela",
            "lname": "Ortiz"
        },
        {
            "fname": "Ashley",
            "lname": "Otano"
        },
        {
            "fname": "Angelina",
            "lname": "Otero"
        },
        {
            "fname": "GIanna",
            "lname": "Padron"
        },
        {
            "fname": "Aubrey",
            "lname": "Pagan"
        },
        {
            "fname": "Jessica",
            "lname": "Page"
        },
        {
            "fname": "Hannah",
            "lname": "Page"
        },
        {
            "fname": "Anabella",
            "lname": "Palacio"
        },
        {
            "fname": "Jada",
            "lname": "Pallagi"
        },
        {
            "fname": "Eleni",
            "lname": "Papagianakis"
        },
        {
            "fname": "Karina",
            "lname": "Parrondo"
        },
        {
            "fname": "Mia",
            "lname": "Pazmino"
        },
        {
            "fname": "Olivia",
            "lname": "Peacock"
        },
        {
            "fname": "Alana",
            "lname": "Pena"
        },
        {
            "fname": "Liana",
            "lname": "Pena"
        },
        {
            "fname": "Barbara",
            "lname": "Perdomo"
        },
        {
            "fname": "Juliana",
            "lname": "Peredo"
        },
        {
            "fname": "Maddie",
            "lname": "Pereira"
        },
        {
            "fname": "Ally",
            "lname": "Pereira"
        },
        {
            "fname": "Penelope",
            "lname": "Perez"
        },
        {
            "fname": "Emily",
            "lname": "Perez"
        },
        {
            "fname": "Daniela",
            "lname": "Perez"
        },
        {
            "fname": "Noelis",
            "lname": "Perez"
        },
        {
            "fname": "Alicia",
            "lname": "Perez"
        },
        {
            "fname": "Jorge",
            "lname": "Perez"
        },
        {
            "fname": "Sophia",
            "lname": "Perez"
        },
        {
            "fname": "Gia",
            "lname": "Perez"
        },
        {
            "fname": "Nicole",
            "lname": "Perez"
        },
        {
            "fname": "Victoria",
            "lname": "Perez"
        },
        {
            "fname": "Noelis",
            "lname": "Perez"
        },
        {
            "fname": "Chloe",
            "lname": "Perkins"
        },
        {
            "fname": "Samantha",
            "lname": "Perna"
        },
        {
            "fname": "Alessia",
            "lname": "Perotti"
        },
        {
            "fname": "Garrett",
            "lname": "Perry"
        },
        {
            "fname": "Gavin",
            "lname": "Perry"
        },
        {
            "fname": "Braeden",
            "lname": "Pethel"
        },
        {
            "fname": "Connie",
            "lname": "Phelan"
        },
        {
            "fname": "Nicole",
            "lname": "Piles"
        },
        {
            "fname": "Sofia",
            "lname": "Pineda"
        },
        {
            "fname": "Angeli",
            "lname": "Pino"
        },
        {
            "fname": "Annalise",
            "lname": "Pisciotti"
        },
        {
            "fname": "Nicole",
            "lname": "Pizarro"
        },
        {
            "fname": "Janelle",
            "lname": "Pla"
        },
        {
            "fname": "Sadie",
            "lname": "Politi"
        },
        {
            "fname": "Diana",
            "lname": "Pombo"
        },
        {
            "fname": "Andrea",
            "lname": "Pombo"
        },
        {
            "fname": "Kimika",
            "lname": "Popowski"
        },
        {
            "fname": "Carly",
            "lname": "Port"
        },
        {
            "fname": "Sydney",
            "lname": "Port"
        },
        {
            "fname": "Alyson",
            "lname": "Port"
        },
        {
            "fname": "Lina",
            "lname": "Portela"
        },
        {
            "fname": "Isabella",
            "lname": "Portela"
        },
        {
            "fname": "Logan",
            "lname": "Porter"
        },
        {
            "fname": "Aoife",
            "lname": "Porter"
        },
        {
            "fname": "Andrea",
            "lname": "Portocarrera"
        },
        {
            "fname": "Sofia",
            "lname": "Posada"
        },
        {
            "fname": "Isabella",
            "lname": "Prado"
        },
        {
            "fname": "Gianna",
            "lname": "Presa"
        },
        {
            "fname": "William",
            "lname": "Preston"
        },
        {
            "fname": "Nathalie",
            "lname": "Prieto"
        },
        {
            "fname": "Dante",
            "lname": "Pulles"
        },
        {
            "fname": "Olivia",
            "lname": "Pulles"
        },
        {
            "fname": "Andrea",
            "lname": "Quant"
        },
        {
            "fname": "Arianna",
            "lname": "Quant"
        },
        {
            "fname": "Gabriela",
            "lname": "Quatela"
        },
        {
            "fname": "Alexandra",
            "lname": "Quevedo"
        },
        {
            "fname": "Daniella",
            "lname": "Quijano"
        },
        {
            "fname": "Gabriela",
            "lname": "Quinones"
        },
        {
            "fname": "Natalia",
            "lname": "Quinones"
        },
        {
            "fname": "Michelle",
            "lname": "Quintana"
        },
        {
            "fname": "Kaylee",
            "lname": "Quintana"
        },
        {
            "fname": "Gaby",
            "lname": "Quintero"
        },
        {
            "fname": "Alexis",
            "lname": "Radcliffe"
        },
        {
            "fname": "Kelsey",
            "lname": "Ragin"
        },
        {
            "fname": "Natalie",
            "lname": "Ramirez"
        },
        {
            "fname": "Brian",
            "lname": "Ramirez"
        },
        {
            "fname": "Gabriela",
            "lname": "Ramirez"
        },
        {
            "fname": "Julieta",
            "lname": "Ramos"
        },
        {
            "fname": "Samantha",
            "lname": "Ramos"
        },
        {
            "fname": "Natalia",
            "lname": "Ramos"
        },
        {
            "fname": "Alana",
            "lname": "Ramos"
        },
        {
            "fname": "Noelle",
            "lname": "Ramsay"
        },
        {
            "fname": "Haley",
            "lname": "Randolph"
        },
        {
            "fname": "Nadia",
            "lname": "Rangel"
        },
        {
            "fname": "Nicolas",
            "lname": "Rapp"
        },
        {
            "fname": "Carolina",
            "lname": "Rapp"
        },
        {
            "fname": "Jonna",
            "lname": "Rauh"
        },
        {
            "fname": "Camila",
            "lname": "Reis"
        },
        {
            "fname": "Jolie",
            "lname": "Reise"
        },
        {
            "fname": "Ana",
            "lname": "Remien"
        },
        {
            "fname": "Nina",
            "lname": "Rende"
        },
        {
            "fname": "Ashlen",
            "lname": "Requenez"
        },
        {
            "fname": "Ysabella",
            "lname": "Reyes"
        },
        {
            "fname": "Marlee",
            "lname": "Rhodes"
        },
        {
            "fname": "Kiki",
            "lname": "Rhodes"
        },
        {
            "fname": "Ian",
            "lname": "Ribot"
        },
        {
            "fname": "Rachel",
            "lname": "Riccardo"
        },
        {
            "fname": "Ava",
            "lname": "Rickard"
        },
        {
            "fname": "Daniela",
            "lname": "Rico"
        },
        {
            "fname": "Lully",
            "lname": "Riera"
        },
        {
            "fname": "Donivyn",
            "lname": "Riley"
        },
        {
            "fname": "Camela",
            "lname": "Riquezes"
        },
        {
            "fname": "Manuela",
            "lname": "Riquezes"
        },
        {
            "fname": "Nicole",
            "lname": "Rivera"
        },
        {
            "fname": "Alexandra",
            "lname": "Rivero"
        },
        {
            "fname": "Macie",
            "lname": "Riveron"
        },
        {
            "fname": "Macie",
            "lname": "Riveron"
        },
        {
            "fname": "Kennedy",
            "lname": "Rivers"
        },
        {
            "fname": "Kayla",
            "lname": "Roberts"
        },
        {
            "fname": "Jae",
            "lname": "Roberts"
        },
        {
            "fname": "Meledy",
            "lname": "Robles"
        },
        {
            "fname": "Brianna",
            "lname": "Roca"
        },
        {
            "fname": "Isabella",
            "lname": "Roche"
        },
        {
            "fname": "Katerina",
            "lname": "Rodriguez"
        },
        {
            "fname": "Sophia",
            "lname": "Rodriguez"
        },
        {
            "fname": "Natalia",
            "lname": "Rodriguez"
        },
        {
            "fname": "Allyson",
            "lname": "Rodriguez"
        },
        {
            "fname": "Emily",
            "lname": "Rodriguez"
        },
        {
            "fname": "Vanessa",
            "lname": "Rodriguez"
        },
        {
            "fname": "Audrey",
            "lname": "Rodriguez"
        },
        {
            "fname": "Juia",
            "lname": "Rodriguez"
        },
        {
            "fname": "Jasmine",
            "lname": "Rodriguez"
        },
        {
            "fname": "Leilany",
            "lname": "Rodriguez"
        },
        {
            "fname": "Rita",
            "lname": "Rodriguez"
        },
        {
            "fname": "Amberly",
            "lname": "Rodriguez"
        },
        {
            "fname": "Nasharin",
            "lname": "Rodriguez"
        },
        {
            "fname": "Kaili",
            "lname": "Rojas"
        },
        {
            "fname": "Alexiah",
            "lname": "Rolle"
        },
        {
            "fname": "Jackson",
            "lname": "Roloff-Hafenbreadl"
        },
        {
            "fname": "Alexcia",
            "lname": "Roloff-Hafenbreadl"
        },
        {
            "fname": "Isabella",
            "lname": "Romero"
        },
        {
            "fname": "Stephanie",
            "lname": "Roque"
        },
        {
            "fname": "Amber",
            "lname": "Rosa"
        },
        {
            "fname": "Gianna",
            "lname": "Rosell"
        },
        {
            "fname": "Samantha",
            "lname": "Rosenberg"
        },
        {
            "fname": "Samantha",
            "lname": "Rosenzweig"
        },
        {
            "fname": "Leigh",
            "lname": "Ross"
        },
        {
            "fname": "Zachary",
            "lname": "Roy"
        },
        {
            "fname": "Noelle",
            "lname": "Roza"
        },
        {
            "fname": "Christine",
            "lname": "Rubido"
        },
        {
            "fname": "Melany",
            "lname": "Rufin"
        },
        {
            "fname": "Ashley",
            "lname": "Ruge"
        },
        {
            "fname": "Aracely",
            "lname": "Ruiz"
        },
        {
            "fname": "Elizabeth",
            "lname": "Ruiz"
        },
        {
            "fname": "Josie",
            "lname": "Ruiz"
        },
        {
            "fname": "Vivian",
            "lname": "Ruiz"
        },
        {
            "fname": "Alejandro",
            "lname": "Ruiz"
        },
        {
            "fname": "Samantha",
            "lname": "Rycroft"
        },
        {
            "fname": "Melissa",
            "lname": "Saba"
        },
        {
            "fname": "Amelia",
            "lname": "Salas"
        },
        {
            "fname": "Valeria",
            "lname": "Salas"
        },
        {
            "fname": "Trevor",
            "lname": "Samuels"
        },
        {
            "fname": "Julian",
            "lname": "Sanchez"
        },
        {
            "fname": "Isabella",
            "lname": "Sanchez"
        },
        {
            "fname": "Marisol",
            "lname": "Sandoval"
        },
        {
            "fname": "Alexandra",
            "lname": "Santana"
        },
        {
            "fname": "Abigail",
            "lname": "Santana"
        },
        {
            "fname": "Sarah",
            "lname": "Santos"
        },
        {
            "fname": "Amanda",
            "lname": "Santos"
        },
        {
            "fname": "Naomi",
            "lname": "Santos"
        },
        {
            "fname": "Gabriela",
            "lname": "Scheele"
        },
        {
            "fname": "Cecilia",
            "lname": "Scheinowitz"
        },
        {
            "fname": "Camila",
            "lname": "Schwarz"
        },
        {
            "fname": "Kori",
            "lname": "Seewald"
        },
        {
            "fname": "Mia",
            "lname": "Sena"
        },
        {
            "fname": "Camila",
            "lname": "Seneses"
        },
        {
            "fname": "Maria",
            "lname": "Sevilla"
        },
        {
            "fname": "Dylan",
            "lname": "Shaprio"
        },
        {
            "fname": "Dani",
            "lname": "Shaprio"
        },
        {
            "fname": "Morgan",
            "lname": "Shim"
        },
        {
            "fname": "Lily",
            "lname": "Shuman"
        },
        {
            "fname": "Lauren",
            "lname": "Shutter"
        },
        {
            "fname": "Cassie",
            "lname": "Siegel"
        },
        {
            "fname": "Mikaela",
            "lname": "Sifuentes"
        },
        {
            "fname": "Sophia",
            "lname": "Silva"
        },
        {
            "fname": "Ariel",
            "lname": "Simmons"
        },
        {
            "fname": "Jada",
            "lname": "Woullard"
        },
        {
            "fname": "Jaliyah",
            "lname": "Simpson"
        },
        {
            "fname": "Sophia",
            "lname": "Singh"
        },
        {
            "fname": "Payton",
            "lname": "Smith"
        },
        {
            "fname": "Shemara",
            "lname": "Smith"
        },
        {
            "fname": "Grace",
            "lname": "Socher"
        },
        {
            "fname": "Lyla",
            "lname": "Soffer"
        },
        {
            "fname": "Sophia",
            "lname": "Sordo"
        },
        {
            "fname": "Victoria",
            "lname": "Sordo"
        },
        {
            "fname": "Nina",
            "lname": "Soria"
        },
        {
            "fname": "Isabela",
            "lname": "Soria"
        },
        {
            "fname": "Isabella",
            "lname": "Sosa"
        },
        {
            "fname": "Carolina",
            "lname": "Sosa"
        },
        {
            "fname": "Carolina",
            "lname": "Sosa"
        },
        {
            "fname": "Carmen",
            "lname": "Soto"
        },
        {
            "fname": "Veronica",
            "lname": "Sotolongo"
        },
        {
            "fname": "Marianna",
            "lname": "Sourdis"
        },
        {
            "fname": "Michelle",
            "lname": "Southby"
        },
        {
            "fname": "Nicole",
            "lname": "Souto"
        },
        {
            "fname": "Ariel",
            "lname": "Spence"
        },
        {
            "fname": "Nicole",
            "lname": "Spitia"
        },
        {
            "fname": "Lyla",
            "lname": "Squire"
        },
        {
            "fname": "Eric",
            "lname": "Stemen"
        },
        {
            "fname": "Abby",
            "lname": "Sterling"
        },
        {
            "fname": "Raymond",
            "lname": "Sterling"
        },
        {
            "fname": "Yasmin",
            "lname": "Stoeterau"
        },
        {
            "fname": "Emma",
            "lname": "Stokes"
        },
        {
            "fname": "Jack",
            "lname": "Stoll"
        },
        {
            "fname": "Josh",
            "lname": "Stoll"
        },
        {
            "fname": "Santiago",
            "lname": "Suarez"
        },
        {
            "fname": "Sophie",
            "lname": "Suarez"
        },
        {
            "fname": "Isabella",
            "lname": "Suarez"
        },
        {
            "fname": "Ashley",
            "lname": "Suarez"
        },
        {
            "fname": "Isabel",
            "lname": "Suarez"
        },
        {
            "fname": "May",
            "lname": "Sulema"
        },
        {
            "fname": "Sophia",
            "lname": "Summerlin"
        },
        {
            "fname": "Arielle",
            "lname": "Supplice"
        },
        {
            "fname": "Sofia",
            "lname": "Sverdlov"
        },
        {
            "fname": "Isabella",
            "lname": "Tagle"
        },
        {
            "fname": "Georgina",
            "lname": "Tamburini"
        },
        {
            "fname": "Alyssa",
            "lname": "Tanner"
        },
        {
            "fname": "Amabella",
            "lname": "Tarrago"
        },
        {
            "fname": "Madison",
            "lname": "Taylor"
        },
        {
            "fname": "Jackie",
            "lname": "Taylor"
        },
        {
            "fname": "Lacey",
            "lname": "Taylor"
        },
        {
            "fname": "Sofia",
            "lname": "Tejedor"
        },
        {
            "fname": "Karlyn",
            "lname": "Thayer"
        },
        {
            "fname": "Kylie",
            "lname": "Thayer"
        },
        {
            "fname": "Jennifer",
            "lname": "Theobald"
        },
        {
            "fname": "Destinee",
            "lname": "Thom"
        },
        {
            "fname": "Julia",
            "lname": "Toledo"
        },
        {
            "fname": "Pamela",
            "lname": "Toledo"
        },
        {
            "fname": "Natalia",
            "lname": "Torres"
        },
        {
            "fname": "Sophia",
            "lname": "Torresi"
        },
        {
            "fname": "Olivia",
            "lname": "Torresi"
        },
        {
            "fname": "Daniella",
            "lname": "Tosca"
        },
        {
            "fname": "Eva",
            "lname": "Tosca"
        },
        {
            "fname": "Valentina",
            "lname": "Tous"
        },
        {
            "fname": "Claudia",
            "lname": "Travieso"
        },
        {
            "fname": "Veronica",
            "lname": "Travieso"
        },
        {
            "fname": "Alejandra",
            "lname": "Triana"
        },
        {
            "fname": "Julianne",
            "lname": "Triana"
        },
        {
            "fname": "Isabella",
            "lname": "Trillo"
        },
        {
            "fname": "Marcella",
            "lname": "Trivino"
        },
        {
            "fname": "Camilla",
            "lname": "Truesdale"
        },
        {
            "fname": "Anabella",
            "lname": "Ugalde"
        },
        {
            "fname": "Jayset",
            "lname": "Ulloa"
        },
        {
            "fname": "Antonella",
            "lname": "Urquizo"
        },
        {
            "fname": "Sabrina",
            "lname": "Valdes"
        },
        {
            "fname": "Aliette",
            "lname": "Valdes"
        },
        {
            "fname": "Fabiana",
            "lname": "Valdivieso"
        },
        {
            "fname": "Emily",
            "lname": "Valencia"
        },
        {
            "fname": "Ashley",
            "lname": "Vallejo"
        },
        {
            "fname": "Skyla",
            "lname": "Werven"
        },
        {
            "fname": "Charlotte",
            "lname": "Vann"
        },
        {
            "fname": "Hayley",
            "lname": "VanWagner"
        },
        {
            "fname": "Ana",
            "lname": "Vargas"
        },
        {
            "fname": "Jayla",
            "lname": "Vargas"
        },
        {
            "fname": "Irene",
            "lname": "Vasquez"
        },
        {
            "fname": "Alyssa",
            "lname": "Vega"
        },
        {
            "fname": "Jhonny",
            "lname": "Vega"
        },
        {
            "fname": "Natallia",
            "lname": "Vegas"
        },
        {
            "fname": "Kirstin",
            "lname": "Velasco"
        },
        {
            "fname": "Chelsea",
            "lname": "Velasquez"
        },
        {
            "fname": "Chloe",
            "lname": "Velasquez"
        },
        {
            "fname": "Paula",
            "lname": "Velasquez"
        },
        {
            "fname": "Mia",
            "lname": "Venerio"
        },
        {
            "fname": "Caro",
            "lname": "Vento"
        },
        {
            "fname": "Arianna",
            "lname": "Vera"
        },
        {
            "fname": "Lauren",
            "lname": "Vera"
        },
        {
            "fname": "Nicole",
            "lname": "Verde"
        },
        {
            "fname": "Megan",
            "lname": "Vertuli"
        },
        {
            "fname": "Natalya",
            "lname": "Vidal"
        },
        {
            "fname": "Paris",
            "lname": "Vigo"
        },
        {
            "fname": "Andrea",
            "lname": "Villamizar"
        },
        {
            "fname": "Camila",
            "lname": "Villaroel"
        },
        {
            "fname": "Kristine",
            "lname": "Villena"
        },
        {
            "fname": "Ariadne",
            "lname": "Viloria"
        },
        {
            "fname": "Rocio",
            "lname": "Viola"
        },
        {
            "fname": "Jordan",
            "lname": "Viquez"
        },
        {
            "fname": "Anahi",
            "lname": "Von"
        },
        {
            "fname": "Gabriella",
            "lname": "Wagner"
        },
        {
            "fname": "Isabella",
            "lname": "Walker"
        },
        {
            "fname": "Riley",
            "lname": "Walsh"
        },
        {
            "fname": "Emi",
            "lname": "Watson"
        },
        {
            "fname": "Alexis",
            "lname": "Weaver"
        },
        {
            "fname": "Ryann",
            "lname": "Weaver"
        },
        {
            "fname": "Ava",
            "lname": "Weissman"
        },
        {
            "fname": "Isabela",
            "lname": "Wejc"
        },
        {
            "fname": "Lailah",
            "lname": "West"
        },
        {
            "fname": "Mya",
            "lname": "White"
        },
        {
            "fname": "Simya",
            "lname": "Whitehead"
        },
        {
            "fname": "Sophia",
            "lname": "Wightman"
        },
        {
            "fname": "Tiffany",
            "lname": "Wiltz"
        },
        {
            "fname": "Yonah",
            "lname": "Winer"
        },
        {
            "fname": "Deborah",
            "lname": "Winer"
        },
        {
            "fname": "Shana",
            "lname": "Winer"
        },
        {
            "fname": "Jaelyn",
            "lname": "Wisdom"
        },
        {
            "fname": "Brooke",
            "lname": "Wise"
        },
        {
            "fname": "Amy",
            "lname": "Wise"
        },
        {
            "fname": "Kailey",
            "lname": "Worontsoff"
        },
        {
            "fname": "Sophia",
            "lname": "Wuttke"
        },
        {
            "fname": "Hanna",
            "lname": "Wyant"
        },
        {
            "fname": "Arianna",
            "lname": "Yacoubian"
        },
        {
            "fname": "Rachel",
            "lname": "Yanes"
        },
        {
            "fname": "Juliana",
            "lname": "Yaniz"
        },
        {
            "fname": "Alexandra",
            "lname": "Yaniz"
        },
        {
            "fname": "Domenica",
            "lname": "Yepez"
        },
        {
            "fname": "Kamryn",
            "lname": "Yockel"
        },
        {
            "fname": "Hayes",
            "lname": "Young"
        },
        {
            "fname": "Brooke",
            "lname": "Young"
        },
        {
            "fname": "Ella",
            "lname": "Zaharas"
        },
        {
            "fname": "Angelina",
            "lname": "Zahn"
        },
        {
            "fname": "Andrea",
            "lname": "Zamora"
        },
        {
            "fname": "Gianna",
            "lname": "Zevallos"
        },
        {
            "fname": "Savannah",
            "lname": "Zittle"
        },
        {
            "fname": "Sarah",
            "lname": "Zuluaga"
        },
        {
            "fname": "Isabella",
            "lname": "Zumpano"
        }
    ]
}