{
	"tour_date": {
	    "id": 746,
	    "event_id": 7,
	    "event_city_id": 3,
	    "season_id": 28,
	    "start_date": "2017/10/13",
	    "end_date": "2017/10/15",
	    "event_city": {"id": 3, "name": "Miami", "state": {"id": 10, "abbr": "FL"}},
	    "event": {"id": 7, "name": "JUMP", "age_as_of_year": 2018},
	    "season": {"id": 28, "start_year": 2017, "end_year": 2018, "event_type_id": 1},
	    "venue": {"id": 358, "name": "Miami Airport Convention Center"}
  	},
  	"routines" : [
		{
			"dispnumber" : "1",
			"has_a" : 1,
    		"hmtime2" : "12:30 PM",
    		"canceled" : 0,
	    	"age_division" : {"range": "8-10", "name" : "Mini"},
    		"dancers": 
		  		{	
		  			"dancer": {
				      "person": {
				        "fname": "Ella",
				        "lname": "Dobler"
				      }
				    }
				},
  			"routine":[{
	    		"awardname" : "HIGH GOLD",
	    		"total_score" : 280,
	    		"dropped_score" : 93,
	    		"routine_category" : {
			      "category" : {"name": "Solo"}
			    },
				"performance_division" : {"id": 1, "name" : "Ballet", "category_id":null},
				"routine_name" : "Specialty Solo",
			      			"studio" : {
	  				"name" : "ScalaDancers",
	  				"code" : "AT"
	  			}
  			}]
    	},
		{
			"dispnumber" : "1",
			"has_a" : 1,
    		"hmtime2" : "12:30 PM",
    		"canceled" : 0,
	    	"age_division" : {"range": "11-12", "name" : "Junior"},
    		"dancers": 
		  		{	
		  			"dancer": {
				      "person": {
				        "fname": "Ella",
				        "lname": "Dobler"
				      }
				    }
				},
  			"routine":[{
	    		"awardname" : "HIGH GOLD",
	    		"total_score" : 280,
	    		"dropped_score" : 93,
	    		"routine_category" : {
			      "category" : {"name": "Solo"}
			    },
				"performance_division" : {"id": 1, "name" : "Ballet", "category_id":null},
				"routine_name" : "Specialty Solo",
			      			"studio" : {
	  				"name" : "ScalaDancers",
	  				"code" : "AT"
	  			}
  			}]
    	},
		{
			"dispnumber" : "1",
			"has_a" : 1,
    		"hmtime2" : "12:30 PM",
    		"canceled" : 0,
	    	"age_division" : {"range": "13-15", "name" : "Teen"},
    		"dancers": 
		  		{	
		  			"dancer": {
				      "person": {
				        "fname": "Ella",
				        "lname": "Dobler"
				      }
				    }
				},
  			"routine":[{
	    		"awardname" : "HIGH GOLD",
	    		"total_score" : 280,
	    		"dropped_score" : 93,
	    		"routine_category" : {
			      "category" : {"name": "Solo"}
			    },
				"performance_division" : {"id": 1, "name" : "Ballet", "category_id":null},
				"routine_name" : "Specialty Solo",
			      			"studio" : {
	  				"name" : "ScalaDancers",
	  				"code" : "AT"
	  			}
  			}]
    	},
    	{
			"dispnumber" : "1",
			"has_a" : 1,
    		"hmtime2" : "12:30 PM",
    		"canceled" : 0,
	    	"age_division" : {"range": "19+", "name" : "Open"},
    		"dancers": 
		  		{	
		  			"dancer": {
				      "person": {
				        "fname": "Ella",
				        "lname": "Dobler"
				      }
				    }
				},
  			"routine":[{
	    		"awardname" : "HIGH GOLD",
	    		"total_score" : 280,
	    		"dropped_score" : 93,
	    		"routine_category" : {
			      "category" : {"name": "Solo"}
			    },
				"performance_division" : {"id": 1, "name" : "Ballet", "category_id":null},
				"routine_name" : "Specialty Solo",
			      			"studio" : {
	  				"name" : "ScalaDancers",
	  				"code" : "AT"
	  			}
  			}]
    	},
    			{
			"dispnumber" : "1",
			"has_a" : 1,
    		"hmtime2" : "12:30 PM",
    		"canceled" : 0,
	    	"age_division" : {"range": "13-15", "name" : "Teen"},
    		"dancers": 
		  		{	
		  			"dancer": {
				      "person": {
				        "fname": "Ella",
				        "lname": "Dobler"
				      }
				    }
				},
  			"routine":[{
	    		"awardname" : "HIGH GOLD",
	    		"total_score" : 280,
	    		"dropped_score" : 93,
	    		"routine_category" : {
			      "category" : {"name": "Solo"}
			    },
				"performance_division" : {"id": 1, "name" : "Ballet", "category_id":null},
				"routine_name" : "Specialty Solo",
			      			"studio" : {
	  				"name" : "ScalaDancers",
	  				"code" : "AT"
	  			}
  			}]
    	}
    ]
}