{
    "minis": [ 22, 24, 25, 26, 29, 32, 34, 40, 41, 44, 45, 48, 54, 57, 59, 61, 61, 71, 73, 76, 85, 89, 90, 98, 99, 101, 103, 106, 109, 125, 126, 128, 136, 137, 139, 140, 144, 149, 152, 161, 162, 163, 164, 168, 169, 171, 172, 173, 175, 176, 177, 178, 179, 186, 187, 188, 192, 193, 195, 195, 196, 200, 203, 208, 209, 212, 213, 215, 216, 217, 219, 220, 221, 222, 224, 225, 226, 227, 228, 229, 231, 232, 490],
    "juniors": [ 22, 24, 25, 26, 29, 32, 34, 40, 41, 44, 45, 48, 54, 57, 59, 61, 61, 71, 73, 76, 85, 89, 90, 98, 99, 101, 103, 106, 109, 125, 126, 128, 136, 137, 139, 140, 144, 149, 152, 161, 162, 163, 164, 168, 169, 171, 172, 173, 175, 176, 177, 178, 179, 186, 187, 188, 192, 193, 195, 195, 196, 200, 203, 208, 209, 212, 213, 215, 216, 217, 219, 220, 221, 222, 224, 225, 226, 227, 228, 229, 231, 232, 490],
    "teens": [ 22, 24, 25, 26, 29, 32, 34, 40, 41, 44, 45, 48, 54, 57, 59, 61, 61, 71, 73, 76, 85, 89, 90, 98, 99, 101, 103, 106, 109, 125, 126, 128, 136, 137, 139, 140, 144, 149, 152, 161, 162, 163, 164, 168, 169, 171, 172, 173, 175, 176, 177, 178, 179, 186, 187, 188, 192, 193, 195, 195, 196, 200, 203, 208, 209, 212, 213, 215, 216, 217, 219, 220, 221, 222, 224, 225, 226, 227, 228, 229, 231, 232, 490],
    "seniors": [ 22, 24, 25, 26, 29, 32, 34, 40, 41, 44, 45, 48, 54, 57, 59, 61, 61, 71, 73, 76, 85, 89, 90, 98, 99, 101, 103, 106, 109, 125, 126, 128, 136, 137, 139, 140, 144, 149, 152, 161, 162, 163, 164, 168, 169, 171, 172, 173, 175, 176, 177, 178, 179, 186, 187, 188, 192, 193, 195, 195, 196, 200, 203, 208, 209, 212, 213, 215, 216, 217, 219, 220, 221, 222, 224, 225, 226, 227, 228, 229, 231, 232, 490]
}