{
	"dancers": [{
      "id": 186,
      "registration_id": 29,
      "registrations_routine_id": 51,
      "dancer_id": 125,
      "workshop_skip": null,
      "date_routines_dancer_id": 32,
      "dancer": {
        "id": 125,
        "person_id": 386,
        "studio_name" : "Pegg MJ Dance Academy",
        "scholarship_code" : "745",
        "parent_guardian": null,
        "email_parents": null,
        "waiver": null,
        "person": {
          "id": 386,
          "address_id": null,
          "gender_id": 2,
          "person_type_id": 8,
          "fname": "Valentina",
          "lname": "Gonzalez Anaya"
        }
      }
    },
    {
      "id": 186,
      "registration_id": 29,
      "registrations_routine_id": 51,
      "dancer_id": 125,
      "workshop_skip": null,
      "date_routines_dancer_id": 32,
      "dancer": {
        "id": 125,
        "person_id": 386,
        "studio_name" : "Project 21",
        "scholarship_code" : "926",
        "parent_guardian": null,
        "email_parents": null,
        "waiver": null,
        "person": {
          "id": 386,
          "address_id": null,
          "gender_id": 2,
          "person_type_id": 8,
          "fname": "Perris",
          "lname": "Amento"
        }
      }
    },
        {
      "id": 186,
      "registration_id": 29,
      "registrations_routine_id": 51,
      "dancer_id": 125,
      "workshop_skip": null,
      "date_routines_dancer_id": 32,
      "dancer": {
        "id": 125,
        "person_id": 386,
        "studio_name" : "Danceology",
        "scholarship_code" : "928",
        "parent_guardian": null,
        "email_parents": null,
        "waiver": null,
        "person": {
          "id": 386,
          "address_id": null,
          "gender_id": 2,
          "person_type_id": 8,
          "fname": "Alex",
          "lname": "Andrada"
        }
      }
    },
    {
      "id": 186,
      "registration_id": 29,
      "registrations_routine_id": 51,
      "dancer_id": 125,
      "workshop_skip": null,
      "date_routines_dancer_id": 32,
      "dancer": {
        "id": 125,
        "person_id": 386,
        "studio_name" : "Signature Dance Academy",
        "scholarship_code" : "930",
        "parent_guardian": null,
        "email_parents": null,
        "waiver": null,
        "person": {
          "id": 386,
          "address_id": null,
          "gender_id": 2,
          "person_type_id": 8,
          "fname": "Bridget",
          "lname": "Bachman"
        }
      }
    },
    {
      "id": 186,
      "registration_id": 29,
      "registrations_routine_id": 51,
      "dancer_id": 125,
      "workshop_skip": null,
      "date_routines_dancer_id": 32,
      "dancer": {
        "id": 125,
        "person_id": 386,
        "studio_name" : "Creative Arts Academy",
        "scholarship_code" : "937",
        "parent_guardian": null,
        "email_parents": null,
        "waiver": null,
        "person": {
          "id": 386,
          "address_id": null,
          "gender_id": 2,
          "person_type_id": 8,
          "fname": "Austyn",
          "lname": "Bazzano"
        }
      }
    },
    {
      "id": 186,
      "registration_id": 29,
      "registrations_routine_id": 51,
      "dancer_id": 125,
      "workshop_skip": null,
      "date_routines_dancer_id": 32,
      "dancer": {
        "id": 125,
        "person_id": 386,
        "studio_name" : "Broadway Dance Center",
        "scholarship_code" : "942",
        "parent_guardian": null,
        "email_parents": null,
        "waiver": null,
        "person": {
          "id": 386,
          "address_id": null,
          "gender_id": 2,
          "person_type_id": 8,
          "fname": "Nicholas",
          "lname": "Bencivengo"
        }
      }
    }
    ]
}