{
	"tour_date": {
	    "id": 746,
	    "event_id": 7,
	    "event_city_id": 3,
	    "season_id": 28,
	    "start_date": "2017-10-13",
	    "end_date": "2017-10-15",
	    "event_city": {"id": 3, "name": "Miami", "state": {"id": 10, "abbr": "FL"}},
	    "event": {"id": 7, "name": "JUMP", "age_as_of_year": 2018},
	    "season": {"id": 28, "start_year": 2017, "end_year": 2018, "event_type_id": 1},
	    "venue": {"id": 358, "name": "Miami Airport Convention Center"}
  	},
	"award_nominations" :
		{
			"studios":[
				{
					"studio_name" : "B-Discovered Dance Company",
					"studio_total" : 2826,
					"soty_mj_ballet_routineid": 1,
					"dn_ballet_mj" : 1148,
					"ballet_mj_name" : "Octet",
					"ballet_mj" : 283,
					"soty_mj_jazz_routineid": 1,
					"dn_jazz_mj" : 1186,
					"jazz_mj_name" : "Girls",
					"jazz_mj" : 280,
					"soty_mj_musicaltheater_routineid": 1,
					"dn_musicaltheater_mj" : 1236 ,
					"musicaltheater_mj_name" : "Raunchy",
					"musicaltheater_mj" : 281,
					"soty_mj_contemplyrical_routineid": 1,
					"dn_contemplyrical_mj" : 1217 ,
					"contemplyrical_mj_name" : "Walking",
					"contemplyrical_mj" : 284,
					"soty_mj_hiphoptap_routineid": 1,
					"dn_hiphop_mj" : 1202 ,
					"hiphop_mj_name" : "A-Squad",
					"hiphop_mj" : 272,
					"soty_ts_ballet_routineid": 1,
					"dn_ballet_ts" : 1516  ,
					"ballet_ts_name" : "Palladio",
					"ballet_ts" : 272,
					"soty_ts_jazz_routineid": 1,
					"dn_jazz_ts" : 1609  ,
					"jazz_ts_name" : "Night",
					"jazz_ts" : 288,
					"soty_ts_musicaltheater_routineid": 1,
					"dn_musicaltheater_ts" : 1443 ,
					"musicaltheater_ts_name" : "I've Got Your Number",
					"musicaltheater_ts" : 282,
					"soty_ts_contemplyrical_routineid": 1,
					"dn_contemplyrical_ts" : 1591 ,
					"contemplyrical_ts_name" : "Stay Alive",
					"contemplyrical_ts" : 291,
					"soty_ts_hiphoptap_routineid": 1,
					"dn_hiphop_ts" : 1578 ,
					"hiphop_ts_name" : "Work",
					"hiphop_ts" : 280
				},
				{
					"studio_name" : "B-Discovered Dance Company",
					"studio_total" : 2826,
					"soty_mj_ballet_routineid": 1,
					"dn_ballet_mj" : 1148,
					"ballet_mj_name" : "Octet",
					"ballet_mj" : 283,
					"soty_mj_jazz_routineid": 1,
					"dn_jazz_mj" : 1186,
					"jazz_mj_name" : "Girls",
					"jazz_mj" : 280,
					"soty_mj_musicaltheater_routineid": 1,
					"dn_musicaltheater_mj" : 1236 ,
					"musicaltheater_mj_name" : "Raunchy",
					"musicaltheater_mj" : 281,
					"soty_mj_contemplyrical_routineid": 1,
					"dn_contemplyrical_mj" : 1217 ,
					"contemplyrical_mj_name" : "Walking",
					"contemplyrical_mj" : 284,
					"soty_mj_hiphoptap_routineid": 1,
					"dn_hiphop_mj" : 1202 ,
					"hiphop_mj_name" : "A-Squad",
					"hiphop_mj" : 272,
					"soty_ts_ballet_routineid": 1,
					"dn_ballet_ts" : 1516  ,
					"ballet_ts_name" : "Palladio",
					"ballet_ts" : 272,
					"soty_ts_jazz_routineid": 1,
					"dn_jazz_ts" : 1609  ,
					"jazz_ts_name" : "Night",
					"jazz_ts" : 288,
					"soty_ts_musicaltheater_routineid": 1,
					"dn_musicaltheater_ts" : 1443 ,
					"musicaltheater_ts_name" : "I've Got Your Number",
					"musicaltheater_ts" : 282,
					"soty_ts_contemplyrical_routineid": 1,
					"dn_contemplyrical_ts" : 1591 ,
					"contemplyrical_ts_name" : "Stay Alive",
					"contemplyrical_ts" : 291,
					"soty_ts_hiphoptap_routineid": 1,
					"dn_hiphop_ts" : 1578 ,
					"hiphop_ts_name" : "Work",
					"hiphop_ts" : 280
				},
				{
					"studio_name" : "B-Discovered Dance Company",
					"studio_total" : 2826,
					"soty_mj_ballet_routineid": 1,
					"dn_ballet_mj" : 1148,
					"ballet_mj_name" : "Octet",
					"ballet_mj" : 283,
					"soty_mj_jazz_routineid": 1,
					"dn_jazz_mj" : 1186,
					"jazz_mj_name" : "Girls",
					"jazz_mj" : 280,
					"soty_mj_musicaltheater_routineid": 1,
					"dn_musicaltheater_mj" : 1236 ,
					"musicaltheater_mj_name" : "Raunchy",
					"musicaltheater_mj" : 281,
					"soty_mj_contemplyrical_routineid": 1,
					"dn_contemplyrical_mj" : 1217 ,
					"contemplyrical_mj_name" : "Walking",
					"contemplyrical_mj" : 284,
					"soty_mj_hiphoptap_routineid": 1,
					"dn_hiphop_mj" : 1202 ,
					"hiphop_mj_name" : "A-Squad",
					"hiphop_mj" : 272,
					"soty_ts_ballet_routineid": 1,
					"dn_ballet_ts" : 1516  ,
					"ballet_ts_name" : "Palladio",
					"ballet_ts" : 272,
					"soty_ts_jazz_routineid": 1,
					"dn_jazz_ts" : 1609  ,
					"jazz_ts_name" : "Night",
					"jazz_ts" : 288,
					"soty_ts_musicaltheater_routineid": 1,
					"dn_musicaltheater_ts" : 1443 ,
					"musicaltheater_ts_name" : "I've Got Your Number",
					"musicaltheater_ts" : 282,
					"soty_ts_contemplyrical_routineid": 1,
					"dn_contemplyrical_ts" : 1591 ,
					"contemplyrical_ts_name" : "Stay Alive",
					"contemplyrical_ts" : 291,
					"soty_ts_hiphoptap_routineid": 1,
					"dn_hiphop_ts" : 1578 ,
					"hiphop_ts_name" : "Work",
					"hiphop_ts" : 280
				},
				{
					"studio_name" : "B-Discovered Dance Company",
					"studio_total" : 2826,
					"soty_mj_ballet_routineid": 1,
					"dn_ballet_mj" : 1148,
					"ballet_mj_name" : "Octet",
					"ballet_mj" : 283,
					"soty_mj_jazz_routineid": 1,
					"dn_jazz_mj" : 1186,
					"jazz_mj_name" : "Girls",
					"jazz_mj" : 280,
					"soty_mj_musicaltheater_routineid": 1,
					"dn_musicaltheater_mj" : 1236 ,
					"musicaltheater_mj_name" : "Raunchy",
					"musicaltheater_mj" : 281,
					"soty_mj_contemplyrical_routineid": 1,
					"dn_contemplyrical_mj" : 1217 ,
					"contemplyrical_mj_name" : "Walking",
					"contemplyrical_mj" : 284,
					"soty_mj_hiphoptap_routineid": 1,
					"dn_hiphop_mj" : 1202 ,
					"hiphop_mj_name" : "A-Squad",
					"hiphop_mj" : 272,
					"soty_ts_ballet_routineid": 1,
					"dn_ballet_ts" : 1516  ,
					"ballet_ts_name" : "Palladio",
					"ballet_ts" : 272,
					"soty_ts_jazz_routineid": 1,
					"dn_jazz_ts" : 1609  ,
					"jazz_ts_name" : "Night",
					"jazz_ts" : 288,
					"soty_ts_musicaltheater_routineid": 1,
					"dn_musicaltheater_ts" : 1443 ,
					"musicaltheater_ts_name" : "I've Got Your Number",
					"musicaltheater_ts" : 282,
					"soty_ts_contemplyrical_routineid": 1,
					"dn_contemplyrical_ts" : 1591 ,
					"contemplyrical_ts_name" : "Stay Alive",
					"contemplyrical_ts" : 291,
					"soty_ts_hiphoptap_routineid": 1,
					"dn_hiphop_ts" : 1578 ,
					"hiphop_ts_name" : "Work",
					"hiphop_ts" : 280
				}
			]
		},
		"mini" :
		{
			"studios":[
				{
					"studio_name": "Aspire Dance Academy",
					"routinename": "We are",
					"finals_score": 282,
					"dispnumber": 1069,
					"has_a" : 0
				},
				{
					"studio_name": "Aspire Dance Academy",
					"routinename": "We are",
					"finals_score": 282,
					"dispnumber": 1069,
					"has_a" : 0
				},
				{
					"studio_name": "Aspire Dance Academy",
					"routinename": "We are",
					"finals_score": 282,
					"dispnumber": 1069,
					"has_a" : 0
				},
				{
					"studio_name": "Aspire Dance Academy",
					"routinename": "We are",
					"finals_score": 282,
					"dispnumber": 1069,
					"has_a" : 0
				},
				{
					"studio_name": "Aspire Dance Academy",
					"routinename": "We are",
					"finals_score": 282,
					"dispnumber": 1069,
					"has_a" : 0
				}
			]
		},
		"junior" :
		{
			"studios":[
				{
					"studio_name": "Aspire Dance Academy",
					"routinename": "Birds",
					"finals_score": 283,
					"dispnumber": 1210,
					"has_a" : 0
				},
				{
					"studio_name": "Aspire Dance Academy",
					"routinename": "Birds",
					"finals_score": 283,
					"dispnumber": 1210,
					"has_a" : 0
				},
				{
					"studio_name": "Aspire Dance Academy",
					"routinename": "Birds",
					"finals_score": 283,
					"dispnumber": 1210,
					"has_a" : 1
				},
				{
					"studio_name": "Aspire Dance Academy",
					"routinename": "Birds",
					"finals_score": 283,
					"dispnumber": 1210,
					"has_a" : 1
				},
				{
					"studio_name": "Aspire Dance Academy",
					"routinename": "Birds",
					"finals_score": 283,
					"dispnumber": 1210,
					"has_a" : 1
				}
			]
		},
		"teen" :
		{
			"studios":[
				{
					"studio_name": "Aspire Dance Academy",
					"routinename": "Way Down We Go",
					"finals_score": 288,
					"dispnumber": 1660,
					"has_a" : 0
				},
				{
					"studio_name": "Aspire Dance Academy",
					"routinename": "Way Down We Go",
					"finals_score": 288,
					"dispnumber": 1660,
					"has_a" : 0
				},
				{
					"studio_name": "Aspire Dance Academy",
					"routinename": "Way Down We Go",
					"finals_score": 288,
					"dispnumber": 1660,
					"has_a" : 0
				},
				{
					"studio_name": "Aspire Dance Academy",
					"routinename": "Way Down We Go",
					"finals_score": 288,
					"dispnumber": 1660,
					"has_a" : 0
				},
				{
					"studio_name": "Aspire Dance Academy",
					"routinename": "Way Down We Go",
					"finals_score": 288,
					"dispnumber": 1660,
					"has_a" : 0
				}
			]
		},
		"senior" :
		{
			"studios":[
				{
					"studio_name": "Aspire Dance Academy",
					"routinename": "Proportions",
					"finals_score": 293,
					"dispnumber": 1634,
					"has_a": 0
				},
				{
					"studio_name": "Aspire Dance Academy",
					"routinename": "Proportions",
					"finals_score": 293,
					"dispnumber": 1634,
					"has_a": 0
				},
				{
					"studio_name": "Aspire Dance Academy",
					"routinename": "Proportions",
					"finals_score": 293,
					"dispnumber": 1634,
					"has_a": 0
				},
				{
					"studio_name": "Aspire Dance Academy",
					"routinename": "Proportions",
					"finals_score": 293,
					"dispnumber": 1634,
					"has_a": 0
				},
				{
					"studio_name": "Aspire Dance Academy",
					"routinename": "Proportions",
					"finals_score": 293,
					"dispnumber": 1634,
					"has_a": 0
				}
			]
		},
		"costume_design":{
			"studios":[
				{
					"studio_name": "Aspire Dance Academy",
					"routinename": "Proportions",
					"finals_score": 293,
					"dispnumber": 1634,
					"has_a": 0
				},
				{
					"studio_name": "Aspire Dance Academy",
					"routinename": "Proportions",
					"finals_score": 293,
					"dispnumber": 1634,
					"has_a": 0
				},
				{
					"studio_name": "Aspire Dance Academy",
					"routinename": "Proportions",
					"finals_score": 293,
					"dispnumber": 1634,
					"has_a": 0
				},
				{
					"studio_name": "Aspire Dance Academy",
					"routinename": "Proportions",
					"finals_score": 293,
					"dispnumber": 1634,
					"has_a": 0
				},
				{
					"studio_name": "Aspire Dance Academy",
					"routinename": "Proportions",
					"finals_score": 293,
					"dispnumber": 1634,
					"has_a": 0
				}
			]
		},
		"choreographer_mj":{
			"studios":[
				{
					"studio_name": "Aspire Dance Academy",
					"routinename": "Proportions",
					"finals_score": 293,
					"dispnumber": 1634,
					"has_a": 0
				},
				{
					"studio_name": "Aspire Dance Academy",
					"routinename": "Proportions",
					"finals_score": 293,
					"dispnumber": 1634,
					"has_a": 0
				},
				{
					"studio_name": "Aspire Dance Academy",
					"routinename": "Proportions",
					"finals_score": 293,
					"dispnumber": 1634,
					"has_a": 0
				},
				{
					"studio_name": "Aspire Dance Academy",
					"routinename": "Proportions",
					"finals_score": 293,
					"dispnumber": 1634,
					"has_a": 0
				},
				{
					"studio_name": "Aspire Dance Academy",
					"routinename": "Proportions",
					"finals_score": 293,
					"dispnumber": 1634,
					"has_a": 0
				}
			]
		},
		"choreographer_ts":{
			"studios":[
				{
					"studio_name": "Aspire Dance Academy",
					"routinename": "Proportions",
					"finals_score": 293,
					"dispnumber": 1634,
					"has_a": 0
				},
				{
					"studio_name": "Aspire Dance Academy",
					"routinename": "Proportions",
					"finals_score": 293,
					"dispnumber": 1634,
					"has_a": 0
				},
				{
					"studio_name": "Aspire Dance Academy",
					"routinename": "Proportions",
					"finals_score": 293,
					"dispnumber": 1634,
					"has_a": 0
				},
				{
					"studio_name": "Aspire Dance Academy",
					"routinename": "Proportions",
					"finals_score": 293,
					"dispnumber": 1634,
					"has_a": 0
				},
				{
					"studio_name": "Aspire Dance Academy",
					"routinename": "Proportions",
					"finals_score": 293,
					"dispnumber": 1634,
					"has_a": 0
				}
			]
		},
		"people_choice":{
			"studios":[
				{
					"studio_name": "Aspire Dance Academy",
					"routinename": "Proportions",
					"finals_score": 293,
					"dispnumber": 1634,
					"has_a": 0
				},
				{
					"studio_name": "Aspire Dance Academy",
					"routinename": "Proportions",
					"finals_score": 293,
					"dispnumber": 1634,
					"has_a": 0
				},
				{
					"studio_name": "Aspire Dance Academy",
					"routinename": "Proportions",
					"finals_score": 293,
					"dispnumber": 1634,
					"has_a": 0
				},
				{
					"studio_name": "Aspire Dance Academy",
					"routinename": "Proportions",
					"finals_score": 293,
					"dispnumber": 1634,
					"has_a": 0
				},
				{
					"studio_name": "Aspire Dance Academy",
					"routinename": "Proportions",
					"finals_score": 293,
					"dispnumber": 1634,
					"has_a": 0
				}
			]
		}

}