{
  "id": 29,
  "mybtf_user_id": 43,
  "tour_date_id": 746,
  "studio_id": 18,
  "entered_by_id": null,
  "dts_registration_id": null,
  "event_registration_id": null,
  "independent": null,
  "waiver": true,
  "left_off": "app.register.tour-date-list",
  "heard": null,
  "details": null,
  "viewed": 0,
  "deleted": 0,
  "fees": {"offer": 0, "total": 4097.5, "attendee": 0, "workshop": 2732.5, "bestdancer": 0, "competition": 1365},
  "free_teacher": {"count": 1, "value": 345},
  "credit": {"from": null, "amount": 0},
  "additional_observers": {"one": 1, "two": 10, "complimentary": 8},
  "confirmed": true,
  "completed": true,
  "dates": {"created": "2017-10-27T18:17:35.318Z", "updated": "2017-10-27T22:12:16.525Z", "confirmed": null},
  "discounts": null,
  "is_competing": true,
  "comp_room": null,
  "reviewed": true,
  "paying_by_check": true,
  "date_studio_id": 33,
  "full_rates": null,
  "payments": [],
  "tour_date": {
    "id": 746,
    "event_id": 7,
    "event_city_id": 3,
    "season_id": 28,
    "start_date": "2017-10-13",
    "end_date": "2017-10-15",
    "event_city": {"id": 3, "name": "Miami", "state": {"id": 10, "abbr": "FL"}},
    "event": {"id": 7, "name": "JUMP", "age_as_of_year": 2018},
    "season": {"id": 28, "start_year": 2017, "end_year": 2018, "event_type_id": 1},
    "venue": {"id": 358, "name": "Miami Airport Convention Center"}
  },
  "mybtf_user": {
    "id": 43,
    "person_id": 321,
    "studio_id": 18,
    "email": "123peterkim@gmail.com",
    "password": "v8hp5QYCpxKp7/Kja3JEi/bpwlrP/XCWkzM0Yg/E7wpgoS3DwdSEE3i4GTz+ZAF70/fTatR5RiJNN1i0Pmijkg==",
    "active": null,
    "unregistered": 0,
    "last_login": null,
    "salt": "t4QXla7lHANsw57zgOh3iA==",
    "reset_password": null,
    "provider": {"data": null, "type": "local", "additional": null},
    "roles": ["user"],
    "independent": null,
    "confirmed": true,
    "hints": {"roster": true, "attended_reg": true, "has_scholarship": true},
    "person": {
      "id": 321,
      "address_id": 992,
      "gender_id": null,
      "person_type_id": 5,
      "fname": "Peter test test",
      "lname": "Kim test test",
      "birthdate": "1988-04-27",
      "address": {
        "id": 992,
        "city": "los angeles",
        "state_id": 6,
        "country_id": 1,
        "address": "200 cool st",
        "zip": "90005",
        "state": {"id": 6, "country_id": 1, "name": "Colorado", "abbr": "CO"},
        "country": {"id": 1, "name": "United States", "abbr": "US"}
      },
      "person_type": {"id": 5, "name": "Office Manager", "signup": true},
      "phone": [{
        "id": 982,
        "contact_type_id": 2,
        "value": "2132153651",
        "primary": true,
        "contact_info_person": {"contact_info_id": 982, "person_id": 321},
        "contact_type": {"id": 2, "name": "phone"}
      }],
      "email": []
    }
  },
  "dancers": [{
    "id": 226,
    "registration_id": 29,
    "dancer_id": 122,
    "event_id": null,
    "event_reg_type_id": null,
    "workshop_level_id": 83,
    "promo_code_id": null,
    "one_day": false,
    "attended_reg": false,
    "is_commuter": null,
    "non_commuter": null,
    "classes_only": null,
    "fees": {"attendee": 0, "workshop": 0},
    "scholarship": null,
    "best_dancer": null,
    "event_teacher": null,
    "has_scholarship": true,
    "date_dancer_id": 509,
    "vip_type_id": null,
    "dancer": {
      "id": 122,
      "person_id": 383,
      "parent_guardian": null,
      "email_parents": null,
      "waiver": null,
      "person": {
        "id": 383,
        "address_id": null,
        "gender_id": 2,
        "person_type_id": 8,
        "fname": "11111",
        "lname": "11111",
        "birthdate": "2011-03-29",
        "gender": {"id": 2, "value": "Male"},
        "age": 6
      }
    },
    "workshop_level": {
      "id": 83,
      "level_id": 6,
      "season_id": 28,
      "discount": 195,
      "full": 245,
      "finale_discount": 0,
      "finale_full": 0,
      "one_day_full": 175,
      "one_day_discount": 125,
      "minimum_age": 0,
      "range": 2,
      "recommended_age": 5,
      "level": {"id": 6, "name": "JUMPstart", "event_id": 7, "plural": "JUMPstarts", "order": 6}
    }
  }, {
    "id": 227,
    "registration_id": 29,
    "dancer_id": 125,
    "event_id": null,
    "event_reg_type_id": null,
    "workshop_level_id": 81,
    "promo_code_id": null,
    "one_day": false,
    "attended_reg": false,
    "is_commuter": null,
    "non_commuter": null,
    "classes_only": null,
    "fees": {"attendee": 0, "workshop": 0},
    "scholarship": null,
    "best_dancer": null,
    "event_teacher": null,
    "has_scholarship": true,
    "date_dancer_id": 510,
    "vip_type_id": null,
    "dancer": {
      "id": 125,
      "person_id": 386,
      "parent_guardian": null,
      "email_parents": null,
      "waiver": null,
      "person": {
        "id": 386,
        "address_id": null,
        "gender_id": 2,
        "person_type_id": 8,
        "fname": "5",
        "lname": "5",
        "birthdate": "2006-03-02",
        "gender": {"id": 2, "value": "Male"},
        "age": 11
      }
    },
    "workshop_level": {
      "id": 81,
      "level_id": 2,
      "season_id": 28,
      "discount": 250,
      "full": 300,
      "finale_discount": 0,
      "finale_full": 0,
      "one_day_full": 195,
      "one_day_discount": 165,
      "minimum_age": 11,
      "range": 1,
      "recommended_age": 11,
      "level": {"id": 2, "name": "Junior", "event_id": null, "plural": "Juniors", "order": 4}
    }
  }, {
    "id": 224,
    "registration_id": 29,
    "dancer_id": 126,
    "event_id": null,
    "event_reg_type_id": null,
    "workshop_level_id": 83,
    "promo_code_id": null,
    "one_day": true,
    "attended_reg": false,
    "is_commuter": null,
    "non_commuter": null,
    "classes_only": null,
    "fees": {"attendee": 0, "workshop": 175},
    "scholarship": null,
    "best_dancer": null,
    "event_teacher": null,
    "has_scholarship": false,
    "date_dancer_id": 511,
    "vip_type_id": null,
    "dancer": {
      "id": 126,
      "person_id": 387,
      "parent_guardian": null,
      "email_parents": null,
      "waiver": null,
      "person": {
        "id": 387,
        "address_id": null,
        "gender_id": 1,
        "person_type_id": 8,
        "fname": "6",
        "lname": "6",
        "birthdate": "2011-06-06",
        "gender": {"id": 1, "value": "Female"},
        "age": 6
      }
    },
    "workshop_level": {
      "id": 83,
      "level_id": 6,
      "season_id": 28,
      "discount": 195,
      "full": 245,
      "finale_discount": 0,
      "finale_full": 0,
      "one_day_full": 175,
      "one_day_discount": 125,
      "minimum_age": 0,
      "range": 2,
      "recommended_age": 5,
      "level": {"id": 6, "name": "JUMPstart", "event_id": 7, "plural": "JUMPstarts", "order": 6}
    }
  }, {
    "id": 231,
    "registration_id": 29,
    "dancer_id": 79,
    "event_id": null,
    "event_reg_type_id": null,
    "workshop_level_id": 83,
    "promo_code_id": null,
    "one_day": true,
    "attended_reg": false,
    "is_commuter": null,
    "non_commuter": null,
    "classes_only": null,
    "fees": {"attendee": 0, "workshop": 175},
    "scholarship": null,
    "best_dancer": null,
    "event_teacher": null,
    "has_scholarship": false,
    "date_dancer_id": 512,
    "vip_type_id": null,
    "dancer": {
      "id": 79,
      "person_id": 334,
      "parent_guardian": null,
      "email_parents": null,
      "waiver": null,
      "person": {
        "id": 334,
        "address_id": null,
        "gender_id": 2,
        "person_type_id": null,
        "fname": "aaa",
        "lname": "aaa",
        "birthdate": "2016-02-06",
        "gender": {"id": 2, "value": "Male"},
        "age": 1
      }
    },
    "workshop_level": {
      "id": 83,
      "level_id": 6,
      "season_id": 28,
      "discount": 195,
      "full": 245,
      "finale_discount": 0,
      "finale_full": 0,
      "one_day_full": 175,
      "one_day_discount": 125,
      "minimum_age": 0,
      "range": 2,
      "recommended_age": 5,
      "level": {"id": 6, "name": "JUMPstart", "event_id": 7, "plural": "JUMPstarts", "order": 6}
    }
  }, {
    "id": 234,
    "registration_id": 29,
    "dancer_id": 134,
    "event_id": null,
    "event_reg_type_id": null,
    "workshop_level_id": 83,
    "promo_code_id": null,
    "one_day": false,
    "attended_reg": true,
    "is_commuter": null,
    "non_commuter": null,
    "classes_only": null,
    "fees": {"attendee": 0, "workshop": 122.5},
    "scholarship": null,
    "best_dancer": null,
    "event_teacher": null,
    "has_scholarship": false,
    "date_dancer_id": 513,
    "vip_type_id": null,
    "dancer": {
      "id": 134,
      "person_id": 395,
      "parent_guardian": null,
      "email_parents": null,
      "waiver": null,
      "person": {
        "id": 395,
        "address_id": null,
        "gender_id": 2,
        "person_type_id": 8,
        "fname": "aaa",
        "lname": "aaa",
        "birthdate": "2012-01-04",
        "gender": {"id": 2, "value": "Male"},
        "age": 5
      }
    },
    "workshop_level": {
      "id": 83,
      "level_id": 6,
      "season_id": 28,
      "discount": 195,
      "full": 245,
      "finale_discount": 0,
      "finale_full": 0,
      "one_day_full": 175,
      "one_day_discount": 125,
      "minimum_age": 0,
      "range": 2,
      "recommended_age": 5,
      "level": {"id": 6, "name": "JUMPstart", "event_id": 7, "plural": "JUMPstarts", "order": 6}
    }
  }, {
    "id": 233,
    "registration_id": 29,
    "dancer_id": 113,
    "event_id": null,
    "event_reg_type_id": null,
    "workshop_level_id": 81,
    "promo_code_id": null,
    "one_day": false,
    "attended_reg": true,
    "is_commuter": null,
    "non_commuter": null,
    "classes_only": null,
    "fees": {"attendee": 0, "workshop": 150},
    "scholarship": null,
    "best_dancer": null,
    "event_teacher": null,
    "has_scholarship": false,
    "date_dancer_id": 514,
    "vip_type_id": null,
    "dancer": {
      "id": 113,
      "person_id": 374,
      "parent_guardian": null,
      "email_parents": null,
      "waiver": null,
      "person": {
        "id": 374,
        "address_id": null,
        "gender_id": 1,
        "person_type_id": 8,
        "fname": "allen",
        "lname": "allen",
        "birthdate": "2005-02-08",
        "gender": {"id": 1, "value": "Female"},
        "age": 12
      }
    },
    "workshop_level": {
      "id": 81,
      "level_id": 2,
      "season_id": 28,
      "discount": 250,
      "full": 300,
      "finale_discount": 0,
      "finale_full": 0,
      "one_day_full": 195,
      "one_day_discount": 165,
      "minimum_age": 11,
      "range": 1,
      "recommended_age": 11,
      "level": {"id": 2, "name": "Junior", "event_id": null, "plural": "Juniors", "order": 4}
    }
  }, {
    "id": 225,
    "registration_id": 29,
    "dancer_id": 80,
    "event_id": null,
    "event_reg_type_id": null,
    "workshop_level_id": 83,
    "promo_code_id": null,
    "one_day": false,
    "attended_reg": false,
    "is_commuter": null,
    "non_commuter": null,
    "classes_only": null,
    "fees": {"attendee": 0, "workshop": 245},
    "scholarship": null,
    "best_dancer": null,
    "event_teacher": null,
    "has_scholarship": false,
    "date_dancer_id": 515,
    "vip_type_id": null,
    "dancer": {
      "id": 80,
      "person_id": 336,
      "parent_guardian": null,
      "email_parents": null,
      "waiver": null,
      "person": {
        "id": 336,
        "address_id": null,
        "gender_id": 2,
        "person_type_id": null,
        "fname": "bbb",
        "lname": "bbb",
        "birthdate": "2013-05-02",
        "gender": {"id": 2, "value": "Male"},
        "age": 4
      }
    },
    "workshop_level": {
      "id": 83,
      "level_id": 6,
      "season_id": 28,
      "discount": 195,
      "full": 245,
      "finale_discount": 0,
      "finale_full": 0,
      "one_day_full": 175,
      "one_day_discount": 125,
      "minimum_age": 0,
      "range": 2,
      "recommended_age": 5,
      "level": {"id": 6, "name": "JUMPstart", "event_id": 7, "plural": "JUMPstarts", "order": 6}
    }
  }, {
    "id": 229,
    "registration_id": 29,
    "dancer_id": 81,
    "event_id": null,
    "event_reg_type_id": null,
    "workshop_level_id": 83,
    "promo_code_id": null,
    "one_day": false,
    "attended_reg": false,
    "is_commuter": null,
    "non_commuter": null,
    "classes_only": null,
    "fees": {"attendee": 0, "workshop": 245},
    "scholarship": null,
    "best_dancer": null,
    "event_teacher": null,
    "has_scholarship": false,
    "date_dancer_id": 516,
    "vip_type_id": null,
    "dancer": {
      "id": 81,
      "person_id": 337,
      "parent_guardian": null,
      "email_parents": null,
      "waiver": null,
      "person": {
        "id": 337,
        "address_id": null,
        "gender_id": 1,
        "person_type_id": null,
        "fname": "ccc",
        "lname": "ccc",
        "birthdate": "2014-04-04",
        "gender": {"id": 1, "value": "Female"},
        "age": 3
      }
    },
    "workshop_level": {
      "id": 83,
      "level_id": 6,
      "season_id": 28,
      "discount": 195,
      "full": 245,
      "finale_discount": 0,
      "finale_full": 0,
      "one_day_full": 175,
      "one_day_discount": 125,
      "minimum_age": 0,
      "range": 2,
      "recommended_age": 5,
      "level": {"id": 6, "name": "JUMPstart", "event_id": 7, "plural": "JUMPstarts", "order": 6}
    }
  }, {
    "id": 230,
    "registration_id": 29,
    "dancer_id": 117,
    "event_id": null,
    "event_reg_type_id": null,
    "workshop_level_id": 83,
    "promo_code_id": null,
    "one_day": false,
    "attended_reg": false,
    "is_commuter": null,
    "non_commuter": null,
    "classes_only": null,
    "fees": {"attendee": 0, "workshop": 245},
    "scholarship": null,
    "best_dancer": null,
    "event_teacher": null,
    "has_scholarship": false,
    "date_dancer_id": 517,
    "vip_type_id": null,
    "dancer": {
      "id": 117,
      "person_id": 378,
      "parent_guardian": null,
      "email_parents": null,
      "waiver": null,
      "person": {
        "id": 378,
        "address_id": null,
        "gender_id": 1,
        "person_type_id": 8,
        "fname": "haha",
        "lname": "haha",
        "birthdate": "2012-03-06",
        "gender": {"id": 1, "value": "Female"},
        "age": 5
      }
    },
    "workshop_level": {
      "id": 83,
      "level_id": 6,
      "season_id": 28,
      "discount": 195,
      "full": 245,
      "finale_discount": 0,
      "finale_full": 0,
      "one_day_full": 175,
      "one_day_discount": 125,
      "minimum_age": 0,
      "range": 2,
      "recommended_age": 5,
      "level": {"id": 6, "name": "JUMPstart", "event_id": 7, "plural": "JUMPstarts", "order": 6}
    }
  }, {
    "id": 228,
    "registration_id": 29,
    "dancer_id": 141,
    "event_id": null,
    "event_reg_type_id": null,
    "workshop_level_id": 83,
    "promo_code_id": null,
    "one_day": false,
    "attended_reg": false,
    "is_commuter": null,
    "non_commuter": null,
    "classes_only": null,
    "fees": {"attendee": 0, "workshop": 245},
    "scholarship": null,
    "best_dancer": null,
    "event_teacher": null,
    "has_scholarship": false,
    "date_dancer_id": 518,
    "vip_type_id": null,
    "dancer": {
      "id": 141,
      "person_id": 402,
      "parent_guardian": null,
      "email_parents": null,
      "waiver": null,
      "person": {
        "id": 402,
        "address_id": null,
        "gender_id": 1,
        "person_type_id": 8,
        "fname": "jk",
        "lname": "jk",
        "birthdate": "2017-03-03",
        "gender": {"id": 1, "value": "Female"},
        "age": 0
      }
    },
    "workshop_level": {
      "id": 83,
      "level_id": 6,
      "season_id": 28,
      "discount": 195,
      "full": 245,
      "finale_discount": 0,
      "finale_full": 0,
      "one_day_full": 175,
      "one_day_discount": 125,
      "minimum_age": 0,
      "range": 2,
      "recommended_age": 5,
      "level": {"id": 6, "name": "JUMPstart", "event_id": 7, "plural": "JUMPstarts", "order": 6}
    }
  }, {
    "id": 232,
    "registration_id": 29,
    "dancer_id": 112,
    "event_id": null,
    "event_reg_type_id": null,
    "workshop_level_id": 79,
    "promo_code_id": null,
    "one_day": false,
    "attended_reg": false,
    "is_commuter": null,
    "non_commuter": null,
    "classes_only": null,
    "fees": {"attendee": 0, "workshop": 300},
    "scholarship": null,
    "best_dancer": null,
    "event_teacher": null,
    "has_scholarship": false,
    "date_dancer_id": 519,
    "vip_type_id": null,
    "dancer": {
      "id": 112,
      "person_id": 373,
      "parent_guardian": "1",
      "email_parents": "1",
      "waiver": null,
      "person": {
        "id": 373,
        "address_id": 1008,
        "gender_id": 2,
        "person_type_id": 8,
        "fname": "Peter",
        "lname": "Kim",
        "birthdate": "1988-04-27",
        "gender": {"id": 2, "value": "Male"},
        "age": 29
      }
    },
    "workshop_level": {
      "id": 79,
      "level_id": 4,
      "season_id": 28,
      "discount": 250,
      "full": 300,
      "finale_discount": 0,
      "finale_full": 0,
      "one_day_full": 195,
      "one_day_discount": 165,
      "minimum_age": 16,
      "range": 3,
      "recommended_age": 16,
      "level": {"id": 4, "name": "Senior", "event_id": null, "plural": "Seniors", "order": 2}
    }
  }],
  "teachers": [{
    "id": 30,
    "registration_id": 29,
    "teacher_id": 14,
    "event_id": null,
    "event_reg_type_id": null,
    "workshop_level_id": 90,
    "promo_code_id": null,
    "one_day": true,
    "attended_reg": false,
    "fees": {"attendee": 0, "workshop": 225},
    "date_teacher_id": 71,
    "teacher": {
      "id": 14,
      "person_id": 363,
      "person": {
        "id": 363,
        "address_id": null,
        "gender_id": 1,
        "person_type_id": 2,
        "fname": "123",
        "lname": "2123",
        "birthdate": "2007-03-07",
        "gender": {"id": 1, "value": "Female"}
      }
    }
  }, {
    "id": 28,
    "registration_id": 29,
    "teacher_id": 12,
    "event_id": null,
    "event_reg_type_id": null,
    "workshop_level_id": 90,
    "promo_code_id": null,
    "one_day": false,
    "attended_reg": true,
    "fees": {"attendee": 0, "workshop": 0},
    "date_teacher_id": 72,
    "teacher": {
      "id": 12,
      "person_id": 335,
      "person": {
        "id": 335,
        "address_id": null,
        "gender_id": 1,
        "person_type_id": null,
        "fname": "111",
        "lname": "222",
        "birthdate": "2011-02-02",
        "gender": {"id": 1, "value": "Female"}
      }
    }
  }, {
    "id": 29,
    "registration_id": 29,
    "teacher_id": 16,
    "event_id": null,
    "event_reg_type_id": null,
    "workshop_level_id": 90,
    "promo_code_id": null,
    "one_day": false,
    "attended_reg": false,
    "fees": {"attendee": 0, "workshop": 345},
    "date_teacher_id": 73,
    "teacher": {
      "id": 16,
      "person_id": 368,
      "person": {
        "id": 368,
        "address_id": null,
        "gender_id": 2,
        "person_type_id": 2,
        "fname": "asdsa",
        "lname": "asdasdasd",
        "birthdate": "2013-06-06",
        "gender": {"id": 2, "value": "Male"}
      }
    }
  }, {
    "id": 27,
    "registration_id": 29,
    "teacher_id": 15,
    "event_id": null,
    "event_reg_type_id": null,
    "workshop_level_id": 90,
    "promo_code_id": null,
    "one_day": false,
    "attended_reg": false,
    "fees": {"attendee": 0, "workshop": 345},
    "date_teacher_id": 74,
    "teacher": {
      "id": 15,
      "person_id": 365,
      "person": {
        "id": 365,
        "address_id": null,
        "gender_id": 2,
        "person_type_id": 2,
        "fname": "vsdvav",
        "lname": "dvadv",
        "birthdate": "2013-04-06",
        "gender": {"id": 2, "value": "Male"}
      }
    }
  }],
  "observers": [{
    "id": 18,
    "registration_id": 29,
    "observer_id": 15,
    "workshop_level_id": 85,
    "fees": {"attendee": 0, "workshop": 60},
    "date_observer_id": 27,
    "observer": {
      "id": 15,
      "person_id": 444,
      "person": {
        "id": 444,
        "address_id": null,
        "gender_id": null,
        "person_type_id": null,
        "fname": "2",
        "lname": "2",
        "birthdate": null,
        "gender": null
      }
    },
    "workshop_level": {
      "id": 85,
      "level_id": 31,
      "season_id": 28,
      "discount": 50,
      "full": 60,
      "finale_discount": 0,
      "finale_full": 0,
      "one_day_full": 0,
      "one_day_discount": 0,
      "minimum_age": null,
      "range": null,
      "recommended_age": null,
      "level": {"id": 31, "name": "Observer", "event_id": null, "plural": null, "order": 7}
    }
  }, {
    "id": 19,
    "registration_id": 29,
    "observer_id": 16,
    "workshop_level_id": 85,
    "fees": {"attendee": 0, "workshop": 60},
    "date_observer_id": 26,
    "observer": {
      "id": 16,
      "person_id": 445,
      "person": {
        "id": 445,
        "address_id": null,
        "gender_id": null,
        "person_type_id": null,
        "fname": "3",
        "lname": "3",
        "birthdate": null,
        "gender": null
      }
    },
    "workshop_level": {
      "id": 85,
      "level_id": 31,
      "season_id": 28,
      "discount": 50,
      "full": 60,
      "finale_discount": 0,
      "finale_full": 0,
      "one_day_full": 0,
      "one_day_discount": 0,
      "minimum_age": null,
      "range": null,
      "recommended_age": null,
      "level": {"id": 31, "name": "Observer", "event_id": null, "plural": null, "order": 7}
    }
  }, {
    "id": 20,
    "registration_id": 29,
    "observer_id": 13,
    "workshop_level_id": 89,
    "fees": {"attendee": 0, "workshop": 20},
    "date_observer_id": 25,
    "observer": {
      "id": 13,
      "person_id": 442,
      "person": {
        "id": 442,
        "address_id": null,
        "gender_id": null,
        "person_type_id": null,
        "fname": "PK1",
        "lname": "PK1",
        "birthdate": null,
        "gender": null
      }
    },
    "workshop_level": {
      "id": 89,
      "level_id": 34,
      "season_id": 28,
      "discount": 20,
      "full": 20,
      "finale_discount": 0,
      "finale_full": 0,
      "one_day_full": 0,
      "one_day_discount": 0,
      "minimum_age": null,
      "range": null,
      "recommended_age": null,
      "level": {"id": 34, "name": "Observer2", "event_id": null, "plural": null, "order": 8}
    }
  }],
  "routines": [{
    "id": 51,
    "registration_id": 29,
    "performance_division_id": 1,
    "routine_category_id": 55,
    "age_division_id": 2,
    "routine_id": 52,
    "extra_time": 0,
    "fee": 150,
    "award_type": null,
    "has_prop": true,
    "on_stage": true,
    "date_routine_id": 81,
    "free_ballet": null,
    "vips": null,
    "prelims": null,
    "finals": true,
    "routine": {"id": 52, "studio_id": 18, "name": "test routine 1", "choreographer": "test choreo 1"},
    "performance_division": {"id": 1, "name": "Ballet"},
    "routine_category": {
      "category_id": 1,
      "fee_per_dancer": {"full": 150, "finale": 0, "discount": 125, "finale_prelim": 0},
      "category": {"name": "Solo"}
    },
    "age_division": {"level_id": 2, "range": 1, "minimum_age": 11, "recommended_age": 11, "level": {"name": "Junior"}},
    "dancers": [{
      "id": 186,
      "registration_id": 29,
      "registrations_routine_id": 51,
      "dancer_id": 125,
      "workshop_skip": null,
      "date_routines_dancer_id": 32,
      "dancer": {
        "id": 125,
        "person_id": 386,
        "parent_guardian": null,
        "email_parents": null,
        "waiver": null,
        "person": {
          "id": 386,
          "address_id": null,
          "gender_id": 2,
          "person_type_id": 8,
          "fname": "5",
          "lname": "5",
          "birthdate": "2006-03-02",
          "gender": {"id": 2, "value": "Male"}
        }
      }
    }]
  }, {
    "id": 52,
    "registration_id": 29,
    "performance_division_id": 9,
    "routine_category_id": 55,
    "age_division_id": 5,
    "routine_id": 53,
    "extra_time": 0,
    "fee": 150,
    "award_type": null,
    "has_prop": false,
    "on_stage": false,
    "date_routine_id": 82,
    "free_ballet": null,
    "vips": null,
    "prelims": null,
    "finals": true,
    "routine": {"id": 53, "studio_id": 18, "name": "test routine 2", "choreographer": "test choreo 2"},
    "performance_division": {"id": 9, "name": "Contemporary"},
    "routine_category": {
      "category_id": 1,
      "fee_per_dancer": {"full": 150, "finale": 0, "discount": 125, "finale_prelim": 0},
      "category": {"name": "Solo"}
    },
    "age_division": {"level_id": 6, "range": 2, "minimum_age": 0, "recommended_age": 5, "level": {"name": "JUMPstart"}},
    "dancers": [{
      "id": 187,
      "registration_id": 29,
      "registrations_routine_id": 52,
      "dancer_id": 117,
      "workshop_skip": null,
      "date_routines_dancer_id": 33,
      "dancer": {
        "id": 117,
        "person_id": 378,
        "parent_guardian": null,
        "email_parents": null,
        "waiver": null,
        "person": {
          "id": 378,
          "address_id": null,
          "gender_id": 1,
          "person_type_id": 8,
          "fname": "haha",
          "lname": "haha",
          "birthdate": "2012-03-06",
          "gender": {"id": 1, "value": "Female"}
        }
      }
    }]
  }, {
    "id": 53,
    "registration_id": 29,
    "performance_division_id": 2,
    "routine_category_id": 55,
    "age_division_id": 5,
    "routine_id": 54,
    "extra_time": 0,
    "fee": 150,
    "award_type": null,
    "has_prop": true,
    "on_stage": true,
    "date_routine_id": 83,
    "free_ballet": null,
    "vips": null,
    "prelims": null,
    "finals": true,
    "routine": {"id": 54, "studio_id": 18, "name": "test routine 3", "choreographer": "test choreo 3"},
    "performance_division": {"id": 2, "name": "Hip-Hop"},
    "routine_category": {
      "category_id": 1,
      "fee_per_dancer": {"full": 150, "finale": 0, "discount": 125, "finale_prelim": 0},
      "category": {"name": "Solo"}
    },
    "age_division": {"level_id": 6, "range": 2, "minimum_age": 0, "recommended_age": 5, "level": {"name": "JUMPstart"}},
    "dancers": [{
      "id": 188,
      "registration_id": 29,
      "registrations_routine_id": 53,
      "dancer_id": 122,
      "workshop_skip": null,
      "date_routines_dancer_id": 34,
      "dancer": {
        "id": 122,
        "person_id": 383,
        "parent_guardian": null,
        "email_parents": null,
        "waiver": null,
        "person": {
          "id": 383,
          "address_id": null,
          "gender_id": 2,
          "person_type_id": 8,
          "fname": "11111",
          "lname": "11111",
          "birthdate": "2011-03-29",
          "gender": {"id": 2, "value": "Male"}
        }
      }
    }]
  }, {
    "id": 54,
    "registration_id": 29,
    "performance_division_id": 10,
    "routine_category_id": 56,
    "age_division_id": 5,
    "routine_id": 55,
    "extra_time": 0,
    "fee": 225,
    "award_type": null,
    "has_prop": true,
    "on_stage": true,
    "date_routine_id": 84,
    "free_ballet": null,
    "vips": null,
    "prelims": null,
    "finals": true,
    "routine": {"id": 55, "studio_id": 18, "name": "test routine 4", "choreographer": "test choreo 4"},
    "performance_division": {"id": 10, "name": "Improvisation"},
    "routine_category": {
      "category_id": 2,
      "fee_per_dancer": {"full": 75, "finale": 0, "discount": 65, "finale_prelim": 0},
      "category": {"name": "Duo/Trio"}
    },
    "age_division": {"level_id": 6, "range": 2, "minimum_age": 0, "recommended_age": 5, "level": {"name": "JUMPstart"}},
    "dancers": [{
      "id": 189,
      "registration_id": 29,
      "registrations_routine_id": 54,
      "dancer_id": 122,
      "workshop_skip": null,
      "date_routines_dancer_id": 35,
      "dancer": {
        "id": 122,
        "person_id": 383,
        "parent_guardian": null,
        "email_parents": null,
        "waiver": null,
        "person": {
          "id": 383,
          "address_id": null,
          "gender_id": 2,
          "person_type_id": 8,
          "fname": "11111",
          "lname": "11111",
          "birthdate": "2011-03-29",
          "gender": {"id": 2, "value": "Male"}
        }
      }
    }, {
      "id": 190,
      "registration_id": 29,
      "registrations_routine_id": 54,
      "dancer_id": 134,
      "workshop_skip": null,
      "date_routines_dancer_id": 37,
      "dancer": {
        "id": 134,
        "person_id": 395,
        "parent_guardian": null,
        "email_parents": null,
        "waiver": null,
        "person": {
          "id": 395,
          "address_id": null,
          "gender_id": 2,
          "person_type_id": 8,
          "fname": "aaa",
          "lname": "aaa",
          "birthdate": "2012-01-04",
          "gender": {"id": 2, "value": "Male"}
        }
      }
    }, {
      "id": 191,
      "registration_id": 29,
      "registrations_routine_id": 54,
      "dancer_id": 80,
      "workshop_skip": null,
      "date_routines_dancer_id": 36,
      "dancer": {
        "id": 80,
        "person_id": 336,
        "parent_guardian": null,
        "email_parents": null,
        "waiver": null,
        "person": {
          "id": 336,
          "address_id": null,
          "gender_id": 2,
          "person_type_id": null,
          "fname": "bbb",
          "lname": "bbb",
          "birthdate": "2013-05-02",
          "gender": {"id": 2, "value": "Male"}
        }
      }
    }]
  }, {
    "id": 55,
    "registration_id": 29,
    "performance_division_id": 9,
    "routine_category_id": 56,
    "age_division_id": 2,
    "routine_id": 56,
    "extra_time": 0,
    "fee": 150,
    "award_type": null,
    "has_prop": false,
    "on_stage": false,
    "date_routine_id": 85,
    "free_ballet": null,
    "vips": null,
    "prelims": null,
    "finals": true,
    "routine": {"id": 56, "studio_id": 18, "name": "test routine 5", "choreographer": "test choreo 5"},
    "performance_division": {"id": 9, "name": "Contemporary"},
    "routine_category": {
      "category_id": 2,
      "fee_per_dancer": {"full": 75, "finale": 0, "discount": 65, "finale_prelim": 0},
      "category": {"name": "Duo/Trio"}
    },
    "age_division": {"level_id": 2, "range": 1, "minimum_age": 11, "recommended_age": 11, "level": {"name": "Junior"}},
    "dancers": [{
      "id": 192,
      "registration_id": 29,
      "registrations_routine_id": 55,
      "dancer_id": 125,
      "workshop_skip": null,
      "date_routines_dancer_id": 38,
      "dancer": {
        "id": 125,
        "person_id": 386,
        "parent_guardian": null,
        "email_parents": null,
        "waiver": null,
        "person": {
          "id": 386,
          "address_id": null,
          "gender_id": 2,
          "person_type_id": 8,
          "fname": "5",
          "lname": "5",
          "birthdate": "2006-03-02",
          "gender": {"id": 2, "value": "Male"}
        }
      }
    }, {
      "id": 193,
      "registration_id": 29,
      "registrations_routine_id": 55,
      "dancer_id": 113,
      "workshop_skip": null,
      "date_routines_dancer_id": 39,
      "dancer": {
        "id": 113,
        "person_id": 374,
        "parent_guardian": null,
        "email_parents": null,
        "waiver": null,
        "person": {
          "id": 374,
          "address_id": null,
          "gender_id": 1,
          "person_type_id": 8,
          "fname": "allen",
          "lname": "allen",
          "birthdate": "2005-02-08",
          "gender": {"id": 1, "value": "Female"}
        }
      }
    }]
  }, {
    "id": 56,
    "registration_id": 29,
    "performance_division_id": 2,
    "routine_category_id": 57,
    "age_division_id": 1,
    "routine_id": 57,
    "extra_time": 0,
    "fee": 240,
    "award_type": null,
    "has_prop": true,
    "on_stage": false,
    "date_routine_id": 86,
    "free_ballet": null,
    "vips": null,
    "prelims": null,
    "finals": true,
    "routine": {"id": 57, "studio_id": 18, "name": "test routine 6", "choreographer": "test choreo 6"},
    "performance_division": {"id": 2, "name": "Hip-Hop"},
    "routine_category": {
      "category_id": 3,
      "fee_per_dancer": {"full": 60, "finale": 0, "discount": 50, "finale_prelim": 0},
      "category": {"name": "Group"}
    },
    "age_division": {"level_id": 1, "range": 2, "minimum_age": 8, "recommended_age": 8, "level": {"name": "Mini"}},
    "dancers": [{
      "id": 194,
      "registration_id": 29,
      "registrations_routine_id": 56,
      "dancer_id": 125,
      "workshop_skip": null,
      "date_routines_dancer_id": 40,
      "dancer": {
        "id": 125,
        "person_id": 386,
        "parent_guardian": null,
        "email_parents": null,
        "waiver": null,
        "person": {
          "id": 386,
          "address_id": null,
          "gender_id": 2,
          "person_type_id": 8,
          "fname": "5",
          "lname": "5",
          "birthdate": "2006-03-02",
          "gender": {"id": 2, "value": "Male"}
        }
      }
    }, {
      "id": 195,
      "registration_id": 29,
      "registrations_routine_id": 56,
      "dancer_id": 113,
      "workshop_skip": null,
      "date_routines_dancer_id": 41,
      "dancer": {
        "id": 113,
        "person_id": 374,
        "parent_guardian": null,
        "email_parents": null,
        "waiver": null,
        "person": {
          "id": 374,
          "address_id": null,
          "gender_id": 1,
          "person_type_id": 8,
          "fname": "allen",
          "lname": "allen",
          "birthdate": "2005-02-08",
          "gender": {"id": 1, "value": "Female"}
        }
      }
    }, {
      "id": 196,
      "registration_id": 29,
      "registrations_routine_id": 56,
      "dancer_id": 80,
      "workshop_skip": null,
      "date_routines_dancer_id": 42,
      "dancer": {
        "id": 80,
        "person_id": 336,
        "parent_guardian": null,
        "email_parents": null,
        "waiver": null,
        "person": {
          "id": 336,
          "address_id": null,
          "gender_id": 2,
          "person_type_id": null,
          "fname": "bbb",
          "lname": "bbb",
          "birthdate": "2013-05-02",
          "gender": {"id": 2, "value": "Male"}
        }
      }
    }, {
      "id": 197,
      "registration_id": 29,
      "registrations_routine_id": 56,
      "dancer_id": 81,
      "workshop_skip": null,
      "date_routines_dancer_id": 43,
      "dancer": {
        "id": 81,
        "person_id": 337,
        "parent_guardian": null,
        "email_parents": null,
        "waiver": null,
        "person": {
          "id": 337,
          "address_id": null,
          "gender_id": 1,
          "person_type_id": null,
          "fname": "ccc",
          "lname": "ccc",
          "birthdate": "2014-04-04",
          "gender": {"id": 1, "value": "Female"}
        }
      }
    }]
  }, {
    "id": 57,
    "registration_id": 29,
    "performance_division_id": 2,
    "routine_category_id": 57,
    "age_division_id": 1,
    "routine_id": 58,
    "extra_time": 0,
    "fee": 300,
    "award_type": null,
    "has_prop": false,
    "on_stage": false,
    "date_routine_id": 87,
    "free_ballet": null,
    "vips": null,
    "prelims": null,
    "finals": true,
    "routine": {"id": 58, "studio_id": 18, "name": "test routine 7", "choreographer": "test choreo 7"},
    "performance_division": {"id": 2, "name": "Hip-Hop"},
    "routine_category": {
      "category_id": 3,
      "fee_per_dancer": {"full": 60, "finale": 0, "discount": 50, "finale_prelim": 0},
      "category": {"name": "Group"}
    },
    "age_division": {"level_id": 1, "range": 2, "minimum_age": 8, "recommended_age": 8, "level": {"name": "Mini"}},
    "dancers": [{
      "id": 202,
      "registration_id": 29,
      "registrations_routine_id": 57,
      "dancer_id": 122,
      "workshop_skip": null,
      "date_routines_dancer_id": 44,
      "dancer": {
        "id": 122,
        "person_id": 383,
        "parent_guardian": null,
        "email_parents": null,
        "waiver": null,
        "person": {
          "id": 383,
          "address_id": null,
          "gender_id": 2,
          "person_type_id": 8,
          "fname": "11111",
          "lname": "11111",
          "birthdate": "2011-03-29",
          "gender": {"id": 2, "value": "Male"}
        }
      }
    }, {
      "id": 198,
      "registration_id": 29,
      "registrations_routine_id": 57,
      "dancer_id": 125,
      "workshop_skip": null,
      "date_routines_dancer_id": 45,
      "dancer": {
        "id": 125,
        "person_id": 386,
        "parent_guardian": null,
        "email_parents": null,
        "waiver": null,
        "person": {
          "id": 386,
          "address_id": null,
          "gender_id": 2,
          "person_type_id": 8,
          "fname": "5",
          "lname": "5",
          "birthdate": "2006-03-02",
          "gender": {"id": 2, "value": "Male"}
        }
      }
    }, {
      "id": 201,
      "registration_id": 29,
      "registrations_routine_id": 57,
      "dancer_id": 113,
      "workshop_skip": null,
      "date_routines_dancer_id": 46,
      "dancer": {
        "id": 113,
        "person_id": 374,
        "parent_guardian": null,
        "email_parents": null,
        "waiver": null,
        "person": {
          "id": 374,
          "address_id": null,
          "gender_id": 1,
          "person_type_id": 8,
          "fname": "allen",
          "lname": "allen",
          "birthdate": "2005-02-08",
          "gender": {"id": 1, "value": "Female"}
        }
      }
    }, {
      "id": 199,
      "registration_id": 29,
      "registrations_routine_id": 57,
      "dancer_id": 80,
      "workshop_skip": null,
      "date_routines_dancer_id": 47,
      "dancer": {
        "id": 80,
        "person_id": 336,
        "parent_guardian": null,
        "email_parents": null,
        "waiver": null,
        "person": {
          "id": 336,
          "address_id": null,
          "gender_id": 2,
          "person_type_id": null,
          "fname": "bbb",
          "lname": "bbb",
          "birthdate": "2013-05-02",
          "gender": {"id": 2, "value": "Male"}
        }
      }
    }, {
      "id": 200,
      "registration_id": 29,
      "registrations_routine_id": 57,
      "dancer_id": 117,
      "workshop_skip": null,
      "date_routines_dancer_id": 48,
      "dancer": {
        "id": 117,
        "person_id": 378,
        "parent_guardian": null,
        "email_parents": null,
        "waiver": null,
        "person": {
          "id": 378,
          "address_id": null,
          "gender_id": 1,
          "person_type_id": 8,
          "fname": "haha",
          "lname": "haha",
          "birthdate": "2012-03-06",
          "gender": {"id": 1, "value": "Female"}
        }
      }
    }]
  }],
  "studio": {"id": 18, "name": "Break The Floor Productions test test"}
}