{
    "contacts": [
        {
            "contact":"Alexandria Kowalski",
            "studio_name": "Adrenaline Dance Company",
            "address": "13716 SW 56 Street",
            "city": "Miami",
            "state": "FL",
            "zip": "33175",
            "country_name": "United States"
        },
        {
            "contact": "Mary Sanchez",
            "studio_name": "Alouettes Academy",
            "address": "15451 SW 137 AVE",
            "city": "MIAMI",
            "state": "FL",
            "zip": "35475",
            "country_name": "United States"
        },
        {
            "contact": "Diana Romero",
            "studio_name": "Atico Ballet y Danzas",
            "address": "Ciudadela Mediterranea",
            "city": "Manta",
            "state": "Manabí Province",
            "zip": "23563",
            "country_name": "Ecuador"
        },
        {
            "contact": "Victor Silva",
            "studio_name": "Break the Floor",
            "address": "13716 SW 56 Street",
            "city": "Rio de Janeiro",
            "state": "RJ",
            "zip": "123456",
            "country_name": "Brazil"
        },
        {
            "contact": "Alexandria Kowalski",
            "studio_name": "Adrenaline Dance Company",
            "address": "13716 SW 56 Street",
            "city": "Miami",
            "state": "FL",
            "zip": "33175",
            "country_name": "United States"
        },
        {
            "contact": "Mary Sanchez",
            "studio_name": "Alouettes Academy",
            "address": "15451 SW 137 AVE",
            "city": "MIAMI",
            "state": "FL",
            "zip": "35475",
            "country_name": "United States"
        },
        {
            "contact": "Diana Romero",
            "studio_name": "Atico Ballet y Danzas",
            "address": "Ciudadela Mediterranea",
            "city": "Manta",
            "state": "Manabí Province",
            "zip": "23563",
            "country_name": "Ecuador"
        }
    ]
}