{
  "tour_date": {
    "id": 746,
    "event_id": 7,
    "event_city_id": 3,
    "season_id": 28,
    "start_date": "2017-10-13",
    "end_date": "2017-10-15",
    "event_city": {"id": 3, "name": "Miami", "state": {"id": 10, "abbr": "FL"}},
    "event": {"id": 7, "name": "JUMP", "age_as_of_year": 2018},
    "season": {"id": 28, "start_year": 2017, "end_year": 2018, "event_type_id": 1},
    "venue": {"id": 358, "name": "Miami Airport Convention Center"}
  },
	"dancers": [{
      "id": 186,
      "registration_id": 29,
      "registrations_routine_id": 51,
      "dancer_id": 125,
      "workshop_skip": null,
      "date_routines_dancer_id": 32,
      "dancer": {
        "id": 125,
        "person_id": 386,
        "studio_name" : "Above the Barre Dance Academy",
        "scholarship_code" : "397",
        "parent_guardian": null,
        "email_parents": null,
        "waiver": null,
        "one_day": 0,
        "age": 7,
        "person": {
          "id": 386,
          "address_id": null,
          "gender_id": 2,
          "person_type_id": 8,
          "fname": "Maci",
          "lname": "Quam"
        }
      }
    },
    {
      "id": 186,
      "registration_id": 29,
      "registrations_routine_id": 51,
      "dancer_id": 125,
      "workshop_skip": null,
      "date_routines_dancer_id": 32,
      "dancer": {
        "id": 125,
        "person_id": 386,
        "studio_name" : "Academy of Nevada Ballet Theatre",
        "scholarship_code" : "1082",
        "parent_guardian": null,
        "email_parents": null,
        "waiver": null,
        "one_day": 0,
        "age": 7,
        "person": {
          "id": 386,
          "address_id": null,
          "gender_id": 2,
          "person_type_id": 8,
          "fname": "Jemoni",
          "lname": "Powe"
        }
      }
    },
        {
      "id": 186,
      "registration_id": 29,
      "registrations_routine_id": 51,
      "dancer_id": 125,
      "workshop_skip": null,
      "date_routines_dancer_id": 32,
      "dancer": {
        "id": 125,
        "person_id": 386,
        "studio_name" : "Academy of Nevada Ballet Theatre",
        "scholarship_code" : "1101",
        "parent_guardian": null,
        "email_parents": null,
        "waiver": null,
        "one_day": 0,
        "age": 9,
        "person": {
          "id": 386,
          "address_id": null,
          "gender_id": 2,
          "person_type_id": 8,
          "fname": "Hailee",
          "lname": "Smith"
        }
      }
    },
    {
      "id": 186,
      "registration_id": 29,
      "registrations_routine_id": 51,
      "dancer_id": 125,
      "workshop_skip": null,
      "date_routines_dancer_id": 32,
      "dancer": {
        "id": 125,
        "person_id": 386,
        "studio_name" : "Adage Studio",
        "scholarship_code" : "1650",
        "parent_guardian": null,
        "email_parents": null,
        "waiver": null,
        "one_day": 1,
        "age": 9,
        "person": {
          "id": 386,
          "address_id": null,
          "gender_id": 2,
          "person_type_id": 8,
          "fname": "Kaya",
          "lname": "Tousaw"
        }
      }
    },
    {
      "id": 186,
      "registration_id": 29,
      "registrations_routine_id": 51,
      "dancer_id": 125,
      "workshop_skip": null,
      "date_routines_dancer_id": 32,
      "dancer": {
        "id": 125,
        "person_id": 386,
        "studio_name" : "Art & Soul Dance Company",
        "scholarship_code" : "153",
        "parent_guardian": null,
        "email_parents": null,
        "waiver": null,
        "one_day": 1,
        "age": 6,
        "person": {
          "id": 386,
          "address_id": null,
          "gender_id": 2,
          "person_type_id": 8,
          "fname": "Sophia",
          "lname": "DelPrete"
        }
      }
    },
    {
      "id": 186,
      "registration_id": 29,
      "registrations_routine_id": 51,
      "dancer_id": 125,
      "workshop_skip": null,
      "date_routines_dancer_id": 32,
      "dancer": {
        "id": 125,
        "person_id": 386,
        "studio_name" : "Art & Soul Dance Company",
        "scholarship_code" : "381",
        "parent_guardian": null,
        "email_parents": null,
        "waiver": null,
        "one_day": 1,
        "age": 8,
        "person": {
          "id": 386,
          "address_id": null,
          "gender_id": 2,
          "person_type_id": 8,
          "fname": "Leyla",
          "lname": "Munoz"
        }
      }
    }
    ]
}