{
    "dancers": [
        {
            "fname":"Chau",
            "lname": "Second",
            "studio_name": "Adrenaline Dance Company",
            "scholarship_code": "12345",
            "scholarshipname": "Mini Female JUMP VIP",
            "winner": null
        },
        {
            "fname":"Chau",
            "lname": "Test",
            "studio_name": "Nor Cal Dance Arts",
            "scholarship_code": "32451",
            "scholarshipname": "Mini Female JUMP VIP",
            "winner": 1
        },
        {
            "fname":"Chau",
            "lname": "Second",
            "studio_name": "SJ Dance Company",
            "scholarship_code": "12343",
            "scholarshipname": "Mini Female JUMP VIP",
            "winner": null
        },
        {
            "fname":"Chau",
            "lname": "Test",
            "studio_name": "Dance Unlimited",
            "scholarship_code": "32452",
            "scholarshipname": "Mini Female JUMP VIP",
            "winner": 1
        },
        {
            "fname":"Chau",
            "lname": "Second",
            "studio_name": "Focal Point Dance Studios",
            "scholarship_code": "12347",
            "scholarshipname": "Mini Female JUMP VIP",
            "winner": null
        },
        {
            "fname":"Chau",
            "lname": "Test",
            "studio_name": "North Broward Preparatory School",
            "scholarship_code": "32458",
            "scholarshipname": "Mini Female JUMP VIP",
            "winner": 1
        }
    ]
}