{
	"tour_date": {
	    "id": 746,
	    "event_id": 7,
	    "event_city_id": 3,
	    "season_id": 28,
	    "start_date": "2017-10-13",
	    "end_date": "2017-10-15",
	    "event_city": {"id": 3, "name": "Miami", "state": {"id": 10, "abbr": "FL"}},
	    "event": {"id": 7, "name": "JUMP", "age_as_of_year": 2018},
	    "season": {"id": 28, "start_year": 2017, "end_year": 2018, "event_type_id": 1},
	    "venue": {"id": 358, "name": "Miami Airport Convention Center"}
  	},
  	"awards" : [
  		{
  			"specialawardname" : "Best Performance (Senior)",
  			"winners" : [
  				{
  					"studioname" : "All Night",
  					"routinename" : "Center Stage Performing Arts Studio",
  					"dispnumber" : "1634",
  					"has_a" : 1
  				},
  				{
  					"studioname" : "Red Room",
  					"routinename" : "Creative Arts Academy",
  					"dispnumber" : "1659",
  					"has_a" : 0
  				}
  			]
  		},
  		{
  			"specialawardname" : "Best Performance (Teen)",
  			"winners" : [
  				{
  					"studioname" : "All Night",
  					"routinename" : "Center Stage Performing Arts Studio",
  					"dispnumber" : "1634",
  					"has_a" : 1
  				},
  				{
  					"studioname" : "Red Room",
  					"routinename" : "Creative Arts Academy",
  					"dispnumber" : "1659",
  					"has_a" : 0
  				}
  			]
  		},
  		{
  			"specialawardname" : "Best Performance (Junior)",
  			"winners" : [
  				{
  					"studioname" : "All Night",
  					"routinename" : "Center Stage Performing Arts Studio",
  					"dispnumber" : "1634",
  					"has_a" : 1
  				},
  				{
  					"studioname" : "Red Room",
  					"routinename" : "Creative Arts Academy",
  					"dispnumber" : "1659",
  					"has_a" : 0
  				}
  			]
  		}
  	]
}