{
	"tour_date": {
	    "id": 746,
	    "event_id": 7,
	    "event_city_id": 3,
	    "season_id": 28,
	    "start_date": "2017-10-13",
	    "end_date": "2017-10-15",
	    "event_city": {"id": 3, "name": "Miami", "state": {"id": 10, "abbr": "FL"}},
	    "event": {"id": 7, "name": "JUMP", "age_as_of_year": 2018},
	    "season": {"id": 28, "start_year": 2017, "end_year": 2018, "event_type_id": 1},
	    "venue": {"id": 358, "name": "Miami Airport Convention Center"}
  	},
  	"data": [
        {
        	"gender" : {
        		"gender_name" : "Female",
        		"age_division" : "Mini",
        		"routines" : [
					{ 		
						"place" : "1",
						"fname": "Ella",
						"lname": "Dobler",
						"routine_name" : "BURN",
						"studio_code" : "ER",
						"studio_name" : "Center Stage Performing Arts Studio",
						"vips_total_score" : "277",
						"vips_dropped_score" : "94",
						"vips_dropped_score2" : null,
						"awardname" : "High Gold",
						"ballet" : 261,
						"jazz" : 262,
						"danceoff" : "N/A",
						"perc" : "49.17",
						"tdabdid" : "8076"
			    	},
					{ 		
						"place" : "2",
						"fname": "Ella",
						"lname": "Dobler",
						"routine_name" : "BURN",
						"studio_code" : "ER",
						"studio_name" : "Center Stage Performing Arts Studio",
						"vips_total_score" : "277",
						"vips_dropped_score" : "94",
						"vips_dropped_score2" : null,
						"awardname" : "High Gold",
						"ballet" : 261,
						"jazz" : 262,
						"danceoff" : "N/A",
						"perc" : "49.00",
						"tdabdid" : "8076"
			    	},
					{ 		
						"place" : "3",
						"fname": "Ella",
						"lname": "Dobler",
						"routine_name" : "BURN",
						"studio_code" : "ER",
						"studio_name" : "Center Stage Performing Arts Studio",
						"vips_total_score" : "277",
						"vips_dropped_score" : "94",
						"vips_dropped_score2" : null,
						"awardname" : "High Gold",
						"ballet" : 261,
						"jazz" : 262,
						"danceoff" : "N/A",
						"perc" : "49.00",
						"tdabdid" : "8076"
			    	},
			    	{ 		
						"place" : "3",
						"fname": "Ella",
						"lname": "Dobler",
						"routine_name" : "BURN",
						"studio_code" : "ER",
						"studio_name" : "Center Stage Performing Arts Studio",
						"vips_total_score" : "277",
						"vips_dropped_score" : "94",
						"vips_dropped_score2" : null,
						"awardname" : "High Gold",
						"ballet" : 261,
						"jazz" : 262,
						"danceoff" : "N/A",
						"perc" : "49.00",
						"tdabdid" : "8076"
			    	},
			    	{ 		
						"place" : "4",
						"fname": "Ella",
						"lname": "Dobler",
						"routine_name" : "BURN",
						"studio_code" : "ER",
						"studio_name" : "Center Stage Performing Arts Studio",
						"vips_total_score" : "277",
						"vips_dropped_score" : "94",
						"vips_dropped_score2" : null,
						"awardname" : "High Gold",
						"ballet" : 261,
						"jazz" : 262,
						"danceoff" : "N/A",
						"perc" : "49.00",
						"tdabdid" : "8076"
			    	},
			    	{ 		
						"place" : "4",
						"fname": "Ella",
						"lname": "Dobler",
						"routine_name" : "BURN",
						"studio_code" : "ER",
						"studio_name" : "Center Stage Performing Arts Studio",
						"vips_total_score" : "277",
						"vips_dropped_score" : "94",
						"vips_dropped_score2" : null,
						"awardname" : "High Gold",
						"ballet" : 261,
						"jazz" : 262,
						"danceoff" : "N/A",
						"perc" : "49.00",
						"tdabdid" : "8076"
			    	}
			    ]
			}
        },
        {
        	"gender" : {
        		"gender_name" : "Male",
        		"age_division" : "Mini",
        		"routines" : [
					{ 		
						"place" : "1",
						"fname": "Ella",
						"lname": "Dobler",
						"routine_name" : "BURN",
						"studio_code" : "ER",
						"studio_name" : "Center Stage Performing Arts Studio",
						"vips_total_score" : "277",
						"vips_dropped_score" : "94",
						"vips_dropped_score2" : null,
						"awardname" : "High Gold",
						"ballet" : 261,
						"jazz" : 262,
						"danceoff" : "N/A",
						"perc" : "49.17",
						"tdabdid" : "8076"
			    	},
					{ 		
						"place" : "2",
						"fname": "Ella",
						"lname": "Dobler",
						"routine_name" : "BURN",
						"studio_code" : "ER",
						"studio_name" : "Center Stage Performing Arts Studio",
						"vips_total_score" : "277",
						"vips_dropped_score" : "94",
						"vips_dropped_score2" : null,
						"awardname" : "High Gold",
						"ballet" : 261,
						"jazz" : 262,
						"danceoff" : "N/A",
						"perc" : "49.00",
						"tdabdid" : "8076"
			    	},
					{ 		
						"place" : "3",
						"fname": "Ella",
						"lname": "Dobler",
						"routine_name" : "BURN",
						"studio_code" : "ER",
						"studio_name" : "Center Stage Performing Arts Studio",
						"vips_total_score" : "277",
						"vips_dropped_score" : "94",
						"vips_dropped_score2" : null,
						"awardname" : "High Gold",
						"ballet" : 261,
						"jazz" : 262,
						"danceoff" : "N/A",
						"perc" : "49.00",
						"tdabdid" : "8076"
			    	},
			    	{ 		
						"place" : "3",
						"fname": "Ella",
						"lname": "Dobler",
						"routine_name" : "BURN",
						"studio_code" : "ER",
						"studio_name" : "Center Stage Performing Arts Studio",
						"vips_total_score" : "277",
						"vips_dropped_score" : "94",
						"vips_dropped_score2" : null,
						"awardname" : "High Gold",
						"ballet" : 261,
						"jazz" : 262,
						"danceoff" : "N/A",
						"perc" : "49.00",
						"tdabdid" : "8076"
			    	},
			    	{ 		
						"place" : "4",
						"fname": "Ella",
						"lname": "Dobler",
						"routine_name" : "BURN",
						"studio_code" : "ER",
						"studio_name" : "Center Stage Performing Arts Studio",
						"vips_total_score" : "277",
						"vips_dropped_score" : "94",
						"vips_dropped_score2" : null,
						"awardname" : "High Gold",
						"ballet" : 261,
						"jazz" : 262,
						"danceoff" : "N/A",
						"perc" : "49.00",
						"tdabdid" : "8076"
			    	},
			    	{ 		
						"place" : "4",
						"fname": "Ella",
						"lname": "Dobler",
						"routine_name" : "BURN",
						"studio_code" : "ER",
						"studio_name" : "Center Stage Performing Arts Studio",
						"vips_total_score" : "277",
						"vips_dropped_score" : "94",
						"vips_dropped_score2" : null,
						"awardname" : "High Gold",
						"ballet" : 261,
						"jazz" : 262,
						"danceoff" : "N/A",
						"perc" : "49.00",
						"tdabdid" : "8076"
			    	}
			    ]
			}
        }
    ]
}