{
	"tour_date": {
	    "id": 746,
	    "event_id": 7,
	    "event_city_id": 3,
	    "season_id": 28,
	    "start_date": "2017-10-13",
	    "end_date": "2017-10-15",
	    "event_city": {"id": 3, "name": "Miami", "state": {"id": 10, "abbr": "FL"}},
	    "event": {"id": 7, "name": "JUMP", "age_as_of_year": 2018},
	    "season": {"id": 28, "start_year": 2017, "end_year": 2018, "event_type_id": 1},
	    "venue": {"id": 358, "name": "Miami Airport Convention Center"}
  	},
  	"studios": [
        {
        	"studio_id": 3872,
            "studio_name": "Dance Town",
            "contact_full": "Random Name",
            "address": "8406 NW 108 PL",
            "city": "Miami",
            "studio_code": "FL",
            "zip": 33278,
            "contact": "Lory",
            "workshop_fees": 8480,
            "competition_fees": "1750",
            "total_fees": "10230",
            "fees_paid": "10480",
            "credit": 0,
            "invoice_note": null,
            "competition_routines": [
                {
                    "routine_name": "A Cry",
                    "age_division_name": "Teen",
	    			"dispnumber" : "2",
	    			"has_a": 1,
                    "range": "13-15",
                    "routine_category" : {
					      "category" : {"name": "Solo"}
					    },
                    "routine_dancers": [
                        {
                            "fname": "Alexandria",
                            "lname": "Orengo"
                        }
                    ],
                    "performance_division_name": "Contemporary",
                    "fee": 125,
                    "extra_time": 0,
                    "judges":[
				  		{
				  			"judge" : {
				  				"full_name" : "Nick Lazzarini",
				  				"note" : "rotation on your standing legmore plie on transitions and landings",
				  				"attributes" : 
				  					{
				  						"good":[
				  							{
				  								"point" : "Stage Presence"
				  							},
				  							{
				  								"point" : "Costume"
				  							},
				  							{
				  								"point" : "Confidence"
				  							},
				  							{
				  								"point" : "Appearance"
				  							},
				  							{
				  								"point" : "Appropriateness"
				  							}
				  						],
				  						"bad":[
				  							{
				  								"point" : "Arms Head / Shoulders"
				  							},
				  							{
				  								"point" : "Hands"
				  							},
				  							{
				  								"point" : "Continuity"
				  							}
				  						]
				  					},
				  				"not_friendly" : null,
				  				"i_choreographed" : null,
				  				"score" : 93
				  			}
				  		},
				  		{
				  			"judge" : {
				  				"full_name" : "Nick Lazzarini",
				  				"note" : "rotation on your standing legmore plie on transitions and landings",
				  				"attributes" : 
				  					{
				  						"good":[
				  							{
				  								"point" : "Stage Presence"
				  							},
				  							{
				  								"point" : "Costume"
				  							},
				  							{
				  								"point" : "Confidence"
				  							},
				  							{
				  								"point" : "Appearance"
				  							},
				  							{
				  								"point" : "Appropriateness"
				  							}
				  						],
				  						"bad":[
				  							{
				  								"point" : "Arms Head / Shoulders"
				  							},
				  							{
				  								"point" : "Hands"
				  							},
				  							{
				  								"point" : "Continuity"
				  							}
				  						]
				  					},
				  				"not_friendly" : null,
				  				"i_choreographed" : null,
				  				"score" : 93
				  			}
				  		},
				  		{
				  			"judge" : {
				  				"full_name" : "Nick Lazzarini",
				  				"note" : "rotation on your standing legmore plie on transitions and landings",
				  				"attributes" : 
				  					{
				  						"good":[
				  							{
				  								"point" : "Stage Presence"
				  							},
				  							{
				  								"point" : "Costume"
				  							},
				  							{
				  								"point" : "Confidence"
				  							},
				  							{
				  								"point" : "Appearance"
				  							},
				  							{
				  								"point" : "Appropriateness"
				  							}
				  						],
				  						"bad":[
				  							{
				  								"point" : "Arms Head / Shoulders"
				  							},
				  							{
				  								"point" : "Hands"
				  							},
				  							{
				  								"point" : "Continuity"
				  							}
				  						]
				  					},
				  				"not_friendly" : null,
				  				"i_choreographed" : null,
				  				"score" : 93
				  			}
				  		}
				  	],
				  	
				  	"awardname" : "test"
                },
                {
                    "routine_name": "A Cry",
                    "age_division_name": "Teen",
	    			"dispnumber" : "2",
	    			"has_a": null,
                    "range": "13-15",
                    "routine_category" : {
					      "category" : {"name": "Solo"}
					    },
                    "routine_dancers": [
                        {
                            "fname": "Alexandria",
                            "lname": "Orengo"
                        }
                    ],
                    "performance_division_name": "Contemporary",
                    "fee": 125,
                    "extra_time": 0,
                    "judges":[
				  		{
				  			"judge" : {
				  				"full_name" : "Nick Lazzarini",
				  				"note" : "rotation on your standing legmore plie on transitions and landings",
				  				"attributes" : 
				  					{
				  						"good":[
				  							{
				  								"point" : "Stage Presence"
				  							},
				  							{
				  								"point" : "Costume"
				  							},
				  							{
				  								"point" : "Confidence"
				  							},
				  							{
				  								"point" : "Appearance"
				  							},
				  							{
				  								"point" : "Appropriateness"
				  							}
				  						],
				  						"bad":[
				  							{
				  								"point" : "Arms Head / Shoulders"
				  							},
				  							{
				  								"point" : "Hands"
				  							},
				  							{
				  								"point" : "Continuity"
				  							}
				  						]
				  					},
				  				"not_friendly" : null,
				  				"i_choreographed" : null,
				  				"score" : 93
				  			}
				  		},
				  		{
				  			"judge" : {
				  				"full_name" : "Nick Lazzarini",
				  				"note" : "rotation on your standing legmore plie on transitions and landings",
				  				"attributes" : 
				  					{
				  						"good":[
				  							{
				  								"point" : "Stage Presence"
				  							},
				  							{
				  								"point" : "Costume"
				  							},
				  							{
				  								"point" : "Confidence"
				  							},
				  							{
				  								"point" : "Appearance"
				  							},
				  							{
				  								"point" : "Appropriateness"
				  							}
				  						],
				  						"bad":[
				  							{
				  								"point" : "Arms Head / Shoulders"
				  							},
				  							{
				  								"point" : "Hands"
				  							},
				  							{
				  								"point" : "Continuity"
				  							}
				  						]
				  					},
				  				"not_friendly" : null,
				  				"i_choreographed" : null,
				  				"score" : 93
				  			}
				  		},
				  		{
				  			"judge" : {
				  				"full_name" : "Nick Lazzarini",
				  				"note" : "rotation on your standing legmore plie on transitions and landings",
				  				"attributes" : 
				  					{
				  						"good":[
				  							{
				  								"point" : "Stage Presence"
				  							},
				  							{
				  								"point" : "Costume"
				  							},
				  							{
				  								"point" : "Confidence"
				  							},
				  							{
				  								"point" : "Appearance"
				  							},
				  							{
				  								"point" : "Appropriateness"
				  							}
				  						],
				  						"bad":[
				  							{
				  								"point" : "Arms Head / Shoulders"
				  							},
				  							{
				  								"point" : "Hands"
				  							},
				  							{
				  								"point" : "Continuity"
				  							}
				  						]
				  					},
				  				"not_friendly" : null,
				  				"i_choreographed" : null,
				  				"score" : 93
				  			}
				  		}
				  	],
				  	"awardname" : "test"
                },
                                {
                    "routine_name": "A Cry",
                    "age_division_name": "Teen",
	    			"dispnumber" : "2",
                    "range": "13-15",
                    "routine_category" : {
					      "category" : {"name": "Solo"}
					    },
                    "routine_dancers": [
                        {
                            "fname": "Alexandria",
                            "lname": "Orengo"
                        }
                    ],
                    "performance_division_name": "Contemporary",
                    "fee": 125,
                    "extra_time": 0,
                    "judges":[
				  		{
				  			"judge" : {
				  				"full_name" : "Nick Lazzarini",
				  				"note" : "rotation on your standing legmore plie on transitions and landings",
				  				"attributes" : 
				  					{
				  						"good":[
				  							{
				  								"point" : "Stage Presence"
				  							},
				  							{
				  								"point" : "Costume"
				  							},
				  							{
				  								"point" : "Confidence"
				  							},
				  							{
				  								"point" : "Appearance"
				  							},
				  							{
				  								"point" : "Appropriateness"
				  							}
				  						],
				  						"bad":[
				  							{
				  								"point" : "Arms Head / Shoulders"
				  							},
				  							{
				  								"point" : "Hands"
				  							},
				  							{
				  								"point" : "Continuity"
				  							}
				  						]
				  					},
				  				"not_friendly" : null,
				  				"i_choreographed" : null,
				  				"score" : 93
				  			}
				  		},
				  		{
				  			"judge" : {
				  				"full_name" : "Nick Lazzarini",
				  				"note" : "rotation on your standing legmore plie on transitions and landings",
				  				"attributes" : 
				  					{
				  						"good":[
				  							{
				  								"point" : "Stage Presence"
				  							},
				  							{
				  								"point" : "Costume"
				  							},
				  							{
				  								"point" : "Confidence"
				  							},
				  							{
				  								"point" : "Appearance"
				  							},
				  							{
				  								"point" : "Appropriateness"
				  							}
				  						],
				  						"bad":[
				  							{
				  								"point" : "Arms Head / Shoulders"
				  							},
				  							{
				  								"point" : "Hands"
				  							},
				  							{
				  								"point" : "Continuity"
				  							}
				  						]
				  					},
				  				"not_friendly" : 1,
				  				"i_choreographed" : null,
				  				"score" : 93
				  			}
				  		},
				  		{
				  			"judge" : {
				  				"full_name" : "Nick Lazzarini",
				  				"note" : "rotation on your standing legmore plie on transitions and landings",
				  				"attributes" : 
				  					{
				  						"good":[
				  							{
				  								"point" : "Stage Presence"
				  							},
				  							{
				  								"point" : "Costume"
				  							},
				  							{
				  								"point" : "Confidence"
				  							},
				  							{
				  								"point" : "Appearance"
				  							},
				  							{
				  								"point" : "Appropriateness"
				  							}
				  						],
				  						"bad":[
				  							{
				  								"point" : "Arms Head / Shoulders"
				  							},
				  							{
				  								"point" : "Hands"
				  							},
				  							{
				  								"point" : "Continuity"
				  							}
				  						]
				  					},
				  				"not_friendly" : null,
				  				"i_choreographed" : 1,
				  				"score" : 93
				  			}
				  		}
				  	],
				  	"awardname" : "test"
                }
            ]
	}]
}